Emission Spectrum of MAPbI3 based LED
Wavelength Norm. EL Intensity
605	1.20453E-5
610	9.34698E-4
615	6.63227E-4
620	6.41642E-4
625	8.13427E-4
630	0.00105
635	8.87587E-4
640	9.44729E-4
645	7.15443E-4
650	0.00159
655	0.00213
660	0.0024
665	0.0036
670	0.00488
675	0.0077
680	0.01199
685	0.0173
690	0.02578
695	0.04157
700	0.06162
705	0.09549
710	0.13597
715	0.19239
720	0.271
725	0.3653
730	0.4951
735	0.63093
740	0.77728
745	0.89501
750	0.97129
755	1
760	0.94557
765	0.82726
770	0.66955
775	0.52111
780	0.39583
785	0.28848
790	0.20999
795	0.15375
800	0.10827
805	0.07896
810	0.05276
815	0.03629
820	0.02559
825	0.01771
830	0.01183
835	0.00883
840	0.00572
845	0.00393
850	0.00264
855	0.00193
860	0.00161
865	0.00115
870	9.12353E-4