398.678	2.40053E-4
398.942	2.40053E-4
399.207	1.50033E-4
399.471	2.40053E-4
399.735	2.70059E-4
400	2.40053E-4
400.264	1.8004E-4
400.529	1.50033E-4
400.793	3.00066E-4
401.058	3.60079E-4
401.322	1.50033E-4
401.587	1.50033E-4
401.851	2.40053E-4
402.116	1.50033E-4
402.38	2.10046E-4
402.644	3.00066E-4
402.909	1.20026E-4
403.173	2.70059E-4
403.438	1.8004E-4
403.702	2.40053E-4
403.967	6.00132E-5
404.231	3.60079E-4
404.496	3.60079E-4
404.76	2.70059E-4
405.025	2.70059E-4
405.289	1.20026E-4
405.553	3.30073E-4
405.818	2.40053E-4
406.082	2.40053E-4
406.347	3.00066E-4
406.611	2.40053E-4
406.876	3.30073E-4
407.14	1.20026E-4
407.405	1.50033E-4
407.669	2.70059E-4
407.933	1.50033E-4
408.198	2.40053E-4
408.462	2.70059E-4
408.727	5.10112E-4
408.991	2.40053E-4
409.256	3.60079E-4
409.52	2.40053E-4
409.785	2.40053E-4
410.049	5.40119E-4
410.313	3.30073E-4
410.578	3.30073E-4
410.842	3.60079E-4
411.107	3.00066E-4
411.371	3.30073E-4
411.636	4.50099E-4
411.9	3.90086E-4
412.164	3.60079E-4
412.429	3.60079E-4
412.693	3.60079E-4
412.958	3.90086E-4
413.222	4.20092E-4
413.487	3.60079E-4
413.751	5.70125E-4
414.015	4.50099E-4
414.28	4.80106E-4
414.544	4.80106E-4
414.809	3.90086E-4
415.073	4.50099E-4
415.338	3.30073E-4
415.602	5.10112E-4
415.866	6.00132E-4
416.131	3.90086E-4
416.395	3.90086E-4
416.66	1.8004E-4
416.924	6.90152E-4
417.189	3.90086E-4
417.453	2.40053E-4
417.717	3.90086E-4
417.982	5.40119E-4
418.246	4.50099E-4
418.511	3.00066E-4
418.775	5.70125E-4
419.039	6.30139E-4
419.304	5.10112E-4
419.568	4.20092E-4
419.833	5.70125E-4
420.097	5.40119E-4
420.362	5.40119E-4
420.626	4.80106E-4
420.89	4.20092E-4
421.155	6.60145E-4
421.419	4.50099E-4
421.684	5.10112E-4
421.948	7.20158E-4
422.212	6.00132E-4
422.477	6.00132E-4
422.741	4.80106E-4
423.006	3.90086E-4
423.27	4.80106E-4
423.534	6.30139E-4
423.799	6.00132E-4
424.063	5.40119E-4
424.328	5.10112E-4
424.592	4.80106E-4
424.856	4.50099E-4
425.121	5.40119E-4
425.385	5.40119E-4
425.65	8.10178E-4
425.914	4.80106E-4
426.178	7.50165E-4
426.443	6.30139E-4
426.707	5.10112E-4
426.972	5.70125E-4
427.236	3.30073E-4
427.5	5.10112E-4
427.765	6.30139E-4
428.029	5.70125E-4
428.293	4.80106E-4
428.558	5.40119E-4
428.822	4.50099E-4
429.087	6.00132E-4
429.351	7.20158E-4
429.615	5.10112E-4
429.88	4.80106E-4
430.144	7.50165E-4
430.408	6.30139E-4
430.673	6.00132E-4
430.937	3.30073E-4
431.202	6.30139E-4
431.466	6.00132E-4
431.73	4.50099E-4
431.995	6.30139E-4
432.259	7.20158E-4
432.523	6.60145E-4
432.788	8.10178E-4
433.052	6.90152E-4
433.317	5.70125E-4
433.581	6.00132E-4
433.845	7.80172E-4
434.11	4.80106E-4
434.374	6.30139E-4
434.638	6.90152E-4
434.903	6.60145E-4
435.167	7.50165E-4
435.431	6.60145E-4
435.696	6.90152E-4
435.96	6.60145E-4
436.224	5.70125E-4
436.489	5.70125E-4
436.753	6.90152E-4
437.017	6.60145E-4
437.282	5.70125E-4
437.546	8.40185E-4
437.811	5.10112E-4
438.075	9.00198E-4
438.339	6.60145E-4
438.604	6.60145E-4
438.868	6.90152E-4
439.132	6.90152E-4
439.397	6.90152E-4
439.661	7.20158E-4
439.925	9.00198E-4
440.19	7.20158E-4
440.454	6.00132E-4
440.718	7.50165E-4
440.983	8.10178E-4
441.247	7.80172E-4
441.511	9.60211E-4
441.776	6.30139E-4
442.04	9.30205E-4
442.304	5.70125E-4
442.568	8.40185E-4
442.833	8.10178E-4
443.097	6.30139E-4
443.361	7.50165E-4
443.626	6.30139E-4
443.89	7.50165E-4
444.154	8.10178E-4
444.419	7.80172E-4
444.683	6.90152E-4
444.947	9.90218E-4
445.212	7.80172E-4
445.476	7.20158E-4
445.74	9.90218E-4
446.005	8.70191E-4
446.269	7.80172E-4
446.533	8.10178E-4
446.797	7.80172E-4
447.062	6.90152E-4
447.326	6.30139E-4
447.59	7.80172E-4
447.855	8.10178E-4
448.119	9.00198E-4
448.383	7.80172E-4
448.647	8.70191E-4
448.912	8.70191E-4
449.176	8.40185E-4
449.44	0.00105
449.705	7.80172E-4
449.969	6.60145E-4
450.233	8.70191E-4
450.497	6.90152E-4
450.762	8.70191E-4
451.026	8.10178E-4
451.29	0.00132
451.555	0.00108
451.819	7.20158E-4
452.083	0.00117
452.347	0.00114
452.612	0.00105
452.876	9.90218E-4
453.14	0.00102
453.404	9.00198E-4
453.669	8.10178E-4
453.933	8.10178E-4
454.197	8.10178E-4
454.461	7.50165E-4
454.726	0.00126
454.99	0.00147
455.254	0.00126
455.518	9.90218E-4
455.783	0.00123
456.047	0.00108
456.311	0.00105
456.575	9.60211E-4
456.84	0.00114
457.104	9.60211E-4
457.368	0.00102
457.632	0.00141
457.897	0.00105
458.161	0.00147
458.425	0.00144
458.689	0.00159
458.954	0.00126
459.218	0.00141
459.482	0.00135
459.746	0.0015
460.01	0.0015
460.275	0.00138
460.539	0.00117
460.803	0.0015
461.067	0.0012
461.332	0.00177
461.596	0.0018
461.86	0.00141
462.124	0.00168
462.388	0.00162
462.653	0.00192
462.917	0.00186
463.181	0.00168
463.445	0.0018
463.709	0.0018
463.974	0.0018
464.238	0.00186
464.502	0.00231
464.766	0.00228
465.03	0.00228
465.295	0.00222
465.559	0.00246
465.823	0.00276
466.087	0.0027
466.351	0.00291
466.616	0.00264
466.88	0.00282
467.144	0.00288
467.408	0.00312
467.672	0.00315
467.936	0.00357
468.201	0.00315
468.465	0.00366
468.729	0.00342
468.993	0.00399
469.257	0.00393
469.521	0.00456
469.786	0.00435
470.05	0.00426
470.314	0.00429
470.578	0.00483
470.842	0.00525
471.106	0.00483
471.37	0.00519
471.635	0.00546
471.899	0.00585
472.163	0.0063
472.427	0.00618
472.691	0.00714
472.955	0.00666
473.219	0.00744
473.484	0.00744
473.748	0.00795
474.012	0.00798
474.276	0.00858
474.54	0.00891
474.804	0.00921
475.068	0.01017
475.332	0.01053
475.597	0.01056
475.861	0.01074
476.125	0.01131
476.389	0.01194
476.653	0.0126
476.917	0.01296
477.181	0.01359
477.445	0.01443
477.709	0.01542
477.973	0.01614
478.238	0.01701
478.502	0.01863
478.766	0.01845
479.03	0.01941
479.294	0.02109
479.558	0.02109
479.822	0.02238
480.086	0.02323
480.35	0.02494
480.614	0.02563
480.878	0.0277
481.143	0.02812
481.407	0.02857
481.671	0.03133
481.935	0.03457
482.199	0.03565
482.463	0.03607
482.727	0.03868
482.991	0.04039
483.255	0.04375
483.519	0.04543
483.783	0.04786
484.047	0.05224
484.311	0.05131
484.575	0.05674
484.839	0.05803
485.103	0.06271
485.367	0.06742
485.631	0.0676
485.895	0.07118
486.159	0.0764
486.424	0.07892
486.688	0.08396
486.952	0.08699
487.216	0.09284
487.48	0.09683
487.744	0.10535
488.008	0.10751
488.272	0.11367
488.536	0.12135
488.8	0.12285
489.064	0.13128
489.328	0.13623
489.592	0.14493
489.856	0.15171
490.12	0.15819
490.384	0.16531
490.648	0.17284
490.912	0.18307
491.176	0.18616
491.44	0.19642
491.704	0.20903
491.968	0.21542
492.232	0.22283
492.496	0.23249
492.76	0.24062
493.024	0.24902
493.288	0.26478
493.551	0.27531
493.815	0.28077
494.079	0.29007
494.343	0.30238
494.607	0.31597
494.871	0.32806
495.135	0.34018
495.399	0.35228
495.663	0.36671
495.927	0.37259
496.191	0.39255
496.455	0.39927
496.719	0.41562
496.983	0.42582
497.247	0.44053
497.511	0.45346
497.775	0.46984
498.039	0.47551
498.303	0.49337
498.566	0.50456
498.83	0.51947
499.094	0.52953
499.358	0.54867
499.622	0.55704
499.886	0.56706
500.15	0.5827
500.414	0.59998
500.678	0.61123
500.942	0.62525
501.206	0.63266
501.469	0.64283
501.733	0.65717
501.997	0.67467
502.261	0.68322
502.525	0.69291
502.789	0.70218
503.053	0.71962
503.317	0.73045
503.581	0.74047
503.844	0.75779
504.108	0.76457
504.372	0.773
504.636	0.78644
504.9	0.79638
505.164	0.79728
505.428	0.80934
505.691	0.82317
505.955	0.83337
506.219	0.84115
506.483	0.85288
506.747	0.85474
507.011	0.85687
507.275	0.87112
507.538	0.87727
507.802	0.88835
508.066	0.89261
508.33	0.8981
508.594	0.90398
508.857	0.91142
509.121	0.9167
509.385	0.92354
509.649	0.92057
509.913	0.93026
510.177	0.93537
510.44	0.945
510.704	0.95364
510.968	0.95073
511.232	0.95613
511.496	0.96162
511.759	0.96675
512.023	0.96897
512.287	0.97299
512.551	0.96996
512.815	0.9775
513.078	0.97662
513.342	0.97491
513.606	0.98332
513.87	0.98008
514.133	0.98095
514.397	0.98431
514.661	0.99397
514.925	0.99037
515.188	0.99712
515.452	0.99754
515.716	0.99652
515.98	1
516.243	0.99352
516.507	0.99388
516.771	0.99616
517.035	0.98992
517.298	0.99757
517.562	0.99454
517.826	0.99193
518.09	0.99292
518.353	0.99502
518.617	0.9928
518.881	0.99286
519.144	0.99685
519.408	0.99526
519.672	0.99307
519.936	0.99076
520.199	0.98665
520.463	0.98986
520.727	0.97912
520.99	0.99088
521.254	0.98038
521.518	0.98116
521.781	0.98557
522.045	0.96993
522.309	0.97494
522.573	0.97798
522.836	0.97653
523.1	0.97026
523.364	0.97377
523.627	0.96849
523.891	0.96534
524.155	0.96369
524.418	0.96888
524.682	0.96675
524.945	0.95997
525.209	0.95355
525.473	0.9585
525.736	0.96105
526	0.9561
526.264	0.95409
526.527	0.9492
526.791	0.94728
527.055	0.94746
527.318	0.94278
527.582	0.94629
527.845	0.94389
528.109	0.93621
528.373	0.93357
528.636	0.93327
528.9	0.93375
529.163	0.93804
529.427	0.93471
529.691	0.93432
529.954	0.92948
530.218	0.92213
530.481	0.92651
530.745	0.92054
531.009	0.92225
531.272	0.92138
531.536	0.92153
531.799	0.91529
532.063	0.91841
532.326	0.92042
532.59	0.91154
532.854	0.91445
533.117	0.9158
533.381	0.90986
533.644	0.91529
533.908	0.91337
534.171	0.90374
534.435	0.90443
534.698	0.90362
534.962	0.89873
535.225	0.90458
535.489	0.8951
535.753	0.89294
536.016	0.89618
536.28	0.88871
536.543	0.89843
536.807	0.88766
537.07	0.8903
537.334	0.88865
537.597	0.88835
537.861	0.88369
538.124	0.87685
538.388	0.87469
538.651	0.87448
538.915	0.87748
539.178	0.87607
539.442	0.86995
539.705	0.86692
539.968	0.86812
540.232	0.8629
540.495	0.86854
540.759	0.85996
541.022	0.856
541.286	0.84574
541.549	0.86206
541.813	0.84997
542.076	0.84721
542.34	0.84547
542.603	0.8391
542.866	0.83955
543.13	0.83322
543.393	0.83289
543.657	0.83118
543.92	0.82644
544.184	0.81951
544.447	0.81387
544.71	0.81534
544.974	0.81276
545.237	0.80361
545.501	0.80523
545.764	0.80427
546.027	0.80109
546.291	0.79572
546.554	0.79145
546.818	0.79181
547.081	0.78701
547.344	0.78032
547.608	0.77234
547.871	0.77702
548.134	0.7739
548.398	0.7661
548.661	0.75986
548.924	0.75392
549.188	0.74899
549.451	0.74503
549.715	0.74083
549.978	0.73513
550.241	0.72712
550.505	0.73546
550.768	0.72709
551.031	0.72124
551.295	0.72283
551.558	0.71443
551.821	0.70774
552.084	0.70419
552.348	0.69714
552.611	0.69168
552.874	0.68412
553.138	0.6804
553.401	0.68217
553.664	0.67389
553.928	0.67596
554.191	0.66216
554.454	0.66033
554.717	0.65756
554.981	0.6467
555.244	0.64751
555.507	0.64799
555.771	0.63545
556.034	0.6347
556.297	0.62882
556.56	0.61952
556.824	0.61763
557.087	0.61234
557.35	0.60943
557.613	0.60898
557.876	0.60271
558.14	0.59866
558.403	0.58699
558.666	0.58867
558.929	0.57925
559.193	0.58162
559.456	0.57253
559.719	0.56953
559.982	0.55836
560.245	0.56313
560.509	0.55827
560.772	0.54753
561.035	0.54687
561.298	0.54414
561.561	0.53019
561.825	0.53187
562.088	0.52698
562.351	0.5204
562.614	0.51863
562.877	0.51524
563.14	0.50609
563.404	0.5039
563.667	0.50417
563.93	0.50009
564.193	0.49832
564.456	0.48917
564.719	0.48239
564.982	0.48236
565.246	0.47807
565.509	0.47524
565.772	0.46879
566.035	0.46798
566.298	0.46729
566.561	0.45697
566.824	0.4543
567.087	0.4522
567.35	0.44707
567.613	0.44608
567.877	0.44104
568.14	0.43768
568.403	0.43552
568.666	0.42744
568.929	0.42591
569.192	0.42054
569.455	0.42045
569.718	0.41619
569.981	0.411
570.244	0.40845
570.507	0.40701
570.77	0.40404
571.033	0.39945
571.296	0.39264
571.559	0.39342
571.822	0.387
572.086	0.38465
572.349	0.38646
572.612	0.37871
572.875	0.38219
573.138	0.37538
573.401	0.36836
573.664	0.3677
573.927	0.36695
574.19	0.3662
574.453	0.35717
574.716	0.35747
574.979	0.35252
575.242	0.35159
575.504	0.34859
575.767	0.34529
576.03	0.34337
576.293	0.33652
576.556	0.33628
576.819	0.33169
577.082	0.33175
577.345	0.32755
577.608	0.3283
577.871	0.32599
578.134	0.31849
578.397	0.31828
578.66	0.31339
578.923	0.31861
579.186	0.30754
579.449	0.31027
579.712	0.30949
579.974	0.30382
580.237	0.30475
580.5	0.3034
580.763	0.29995
581.026	0.29692
581.289	0.29683
581.552	0.29022
581.815	0.29001
582.078	0.28701
582.34	0.28755
582.603	0.28449
582.866	0.28179
583.129	0.27945
583.392	0.2781
583.655	0.27615
583.918	0.27315
584.18	0.27219
584.443	0.26928
584.706	0.26802
584.969	0.26259
585.232	0.2613
585.495	0.26127
585.757	0.26229
586.02	0.25845
586.283	0.25305
586.546	0.2532
586.809	0.25155
587.071	0.24875
587.334	0.24872
587.597	0.24497
587.86	0.24689
588.122	0.2432
588.385	0.24251
588.648	0.23738
588.911	0.23819
589.174	0.23252
589.436	0.23435
589.699	0.23216
589.962	0.2333
590.224	0.22892
590.487	0.22403
590.75	0.22487
591.013	0.22376
591.275	0.21908
591.538	0.21602
591.801	0.22064
592.064	0.21755
592.326	0.21827
592.589	0.21524
592.852	0.21347
593.114	0.21224
593.377	0.20822
593.64	0.20816
593.902	0.20579
594.165	0.20374
594.428	0.2026
594.69	0.20212
594.953	0.20215
595.216	0.19633
595.478	0.19834
595.741	0.19393
596.004	0.19297
596.266	0.19195
596.529	0.19006
596.792	0.18841
597.054	0.18613
597.317	0.19075
597.579	0.18529
597.842	0.18352
598.105	0.18226
598.367	0.17884
598.63	0.17992
598.892	0.17404
599.155	0.17422
599.418	0.1729
599.68	0.17269
599.943	0.169
600.205	0.17062
600.468	0.16753
600.73	0.16642
600.993	0.16399
601.256	0.16225
601.518	0.16381
601.781	0.16114
602.043	0.15988
602.306	0.15663
602.568	0.15609
602.831	0.15714
603.093	0.15336
603.356	0.15219
603.618	0.14904
603.881	0.14886
604.143	0.14907
604.406	0.14928
604.668	0.14604
604.931	0.14532
605.193	0.14331
605.456	0.14133
605.718	0.1413
605.981	0.14121
606.243	0.14058
606.506	0.13863
606.768	0.13455
607.031	0.1344
607.293	0.13521
607.555	0.13356
607.818	0.13131
608.08	0.12759
608.343	0.12942
608.605	0.12927
608.868	0.12507
609.13	0.12747
609.392	0.12492
609.655	0.12762
609.917	0.12381
610.18	0.12372
610.442	0.12132
610.704	0.11988
610.967	0.11928
611.229	0.12027
611.492	0.11793
611.754	0.117
612.016	0.11388
612.279	0.11559
612.541	0.11189
612.803	0.11183
613.066	0.11147
613.328	0.11373
613.59	0.10913
613.853	0.10862
614.115	0.10958
614.377	0.10904
614.64	0.10529
614.902	0.10574
615.164	0.10367
615.427	0.10667
615.689	0.10316
615.951	0.1016
616.213	0.10376
616.476	0.10175
616.738	0.09935
617	0.09899
617.262	0.09872
617.525	0.09713
617.787	0.09746
618.049	0.09626
618.311	0.0974
618.574	0.09326
618.836	0.0923
619.098	0.09071
619.36	0.0935
619.623	0.09185
619.885	0.08924
620.147	0.09038
620.409	0.08843
620.671	0.08861
620.934	0.08603
621.196	0.08708
621.458	0.08717
621.72	0.08414
621.982	0.08375
622.245	0.08276
622.507	0.08384
622.769	0.0821
623.031	0.0833
623.293	0.08246
623.555	0.08111
623.817	0.08027
624.08	0.07847
624.342	0.07838
624.604	0.07778
624.866	0.07559
625.128	0.07754
625.39	0.0773
625.652	0.07439
625.914	0.07427
626.176	0.07502
626.439	0.0743
626.701	0.07376
626.963	0.07394
627.225	0.07274
627.487	0.07268
627.749	0.06989
628.011	0.06869
628.273	0.07067
628.535	0.0698
628.797	0.07025
629.059	0.06899
629.321	0.06739
629.583	0.06661
629.845	0.06706
630.107	0.0664
630.369	0.06694
630.631	0.06502
630.893	0.06397
631.155	0.06259
631.417	0.06346
631.679	0.06382
631.941	0.0628
632.203	0.061
632.465	0.06043
632.727	0.06163
632.989	0.06058
633.251	0.05803
633.513	0.06046
633.775	0.05917
634.037	0.058
634.299	0.05629
634.561	0.0574
634.823	0.05701
635.085	0.05674
635.347	0.0553
635.608	0.05536
635.87	0.05482
636.132	0.05464
636.394	0.05416
636.656	0.05308
636.918	0.05146
637.18	0.05323
637.442	0.05188
637.704	0.05164
637.965	0.05143
638.227	0.05128
638.489	0.05119
638.751	0.04999
639.013	0.04981
639.275	0.0499
639.536	0.04864
639.798	0.0493
640.06	0.04753
640.322	0.04687
640.584	0.04912
640.845	0.04798
641.107	0.04672
641.369	0.04633
641.631	0.04642
641.893	0.04648
642.154	0.04549
642.416	0.04483
642.678	0.04507
642.94	0.04345
643.201	0.04309
643.463	0.04333
643.725	0.04276
643.987	0.04213
644.248	0.04225
644.51	0.04108
644.772	0.04123
645.034	0.04132
645.295	0.04285
645.557	0.04033
645.819	0.03946
646.08	0.04021
646.342	0.04003
646.604	0.03904
646.865	0.03805
647.127	0.03877
647.389	0.03817
647.65	0.03889
647.912	0.03718
648.174	0.03814
648.435	0.03748
648.697	0.03637
648.959	0.03682
649.22	0.03613
649.482	0.03601
649.743	0.03652
650.005	0.03661
650.267	0.03517
650.528	0.03541
650.79	0.03376
651.051	0.03415
651.313	0.03454
651.575	0.03442
651.836	0.03322
652.098	0.03286
652.359	0.03298
652.621	0.03337
652.882	0.03205
653.144	0.03157
653.405	0.03208
653.667	0.03127
653.928	0.03052
654.19	0.03058
654.452	0.03106
654.713	0.02995
654.975	0.02956
655.236	0.03019
655.498	0.02917
655.759	0.02857
656.02	0.0295
656.282	0.02848
656.543	0.02899
656.805	0.02809
657.066	0.02881
657.328	0.02821
657.589	0.02749
657.851	0.02707
658.112	0.0277
658.374	0.02635
658.635	0.02647
658.896	0.0286
659.158	0.02539
659.419	0.02677
659.681	0.02593
659.942	0.02704
660.203	0.02515
660.465	0.02422
660.726	0.02467
660.987	0.02425
661.249	0.02317
661.51	0.02446
661.772	0.02464
662.033	0.0238
662.294	0.02377
662.556	0.02332
662.817	0.02371
663.078	0.02323
663.34	0.02259
663.601	0.02344
663.862	0.02299
664.123	0.02238
664.385	0.02317
664.646	0.02181
664.907	0.02181
665.169	0.02247
665.43	0.02091
665.691	0.02031
665.952	0.02187
666.214	0.02187
666.475	0.02028
666.736	0.02049
666.731	0.01434
666.992	0.01398
667.254	0.01377
667.516	0.01329
667.778	0.01293
668.039	0.01467
668.301	0.01341
668.563	0.01389
668.825	0.01272
669.087	0.0129
669.348	0.01284
669.61	0.01194
669.872	0.01284
670.134	0.01275
670.395	0.01293
670.657	0.01239
670.919	0.01242
671.181	0.01191
671.442	0.01179
671.704	0.01224
671.966	0.01188
672.228	0.012
672.489	0.0114
672.751	0.01206
673.013	0.01083
673.274	0.01161
673.536	0.01131
673.798	0.01188
674.06	0.01092
674.321	0.01167
674.583	0.01119
674.845	0.0108
675.107	0.01122
675.368	0.00978
675.63	0.01047
675.892	0.01074
676.153	0.01047
676.415	0.01071
676.677	0.0096
676.939	0.00996
677.2	0.00993
677.462	0.00969
677.724	0.00981
677.985	0.00981
678.247	0.00987
678.509	0.00975
678.771	0.00999
679.032	0.0099
679.294	0.01014
679.556	0.00996
679.817	0.00918
680.079	0.00924
680.341	0.00951
680.602	0.01002
680.864	0.00993
681.126	0.00831
681.387	0.00882
681.649	0.00858
681.911	0.00882
682.173	0.00897
682.434	0.00891
682.696	0.00903
682.958	0.00906
683.219	0.00897
683.481	0.00795
683.743	0.00852
684.004	0.00759
684.266	0.00825
684.528	0.0084
684.789	0.00819
685.051	0.00858
685.313	0.00828
685.574	0.00852
685.836	0.0081
686.098	0.00846
686.359	0.00783
686.621	0.00885
686.883	0.00738
687.144	0.0078
687.406	0.00783
687.667	0.00783
687.929	0.00837
688.191	0.00759
688.452	0.00705
688.714	0.00756
688.976	0.00723
689.237	0.00735
689.499	0.00771
689.761	0.00744
690.022	0.00717
690.284	0.00717
690.545	0.00714
690.807	0.00765
691.069	0.00792
691.33	0.00747
691.592	0.00696
691.854	0.00666
692.115	0.00693
692.377	0.00663
692.638	0.0072
692.9	0.00654
693.162	0.0069
693.423	0.0066
693.685	0.00663
693.946	0.00654
694.208	0.00621
694.47	0.00603
694.731	0.00627
694.993	0.00639
695.254	0.00609
695.516	0.00612
695.778	0.0063
696.039	0.00609
696.301	0.00687
696.562	0.00651
696.824	0.00609
697.085	0.00588
697.347	0.00654
697.609	0.006
697.87	0.00624
698.132	0.00573
698.393	0.00582
698.655	0.00558
698.916	0.00528
699.178	0.00633
699.44	0.00585
699.701	0.00552
699.963	0.00633
700.224	0.0057
700.486	0.00561
700.747	0.00579
701.009	0.00513
701.27	0.00549
701.532	0.00528
701.794	0.0057
702.055	0.00519
702.317	0.006
702.578	0.0054
702.84	0.00552
703.101	0.00486
703.363	0.00564
703.624	0.00486
703.886	0.00516
704.147	0.00534
704.409	0.00507
704.67	0.00528
704.932	0.00534
705.193	0.00492
705.455	0.00483
705.716	0.00489
705.978	0.00435
706.239	0.00471
706.501	0.00492
706.762	0.00504
707.024	0.00453
707.285	0.00483
707.547	0.00486
707.808	0.00429
708.07	0.00477
708.331	0.00453
708.593	0.00435
708.854	0.00432
709.116	0.00456
709.377	0.00396
709.639	0.00465
709.9	0.00456
710.162	0.00423
710.423	0.00405
710.685	0.00429
710.946	0.00435
711.208	0.00456
711.469	0.00411
711.731	0.00426
711.992	0.00432
712.253	0.0045
712.515	0.00435
712.776	0.00438
713.038	0.00423
713.299	0.00411
713.561	0.00417
713.822	0.00423
714.084	0.00405
714.345	0.00411
714.606	0.00381
714.868	0.00384
715.129	0.00399
715.391	0.0042
715.652	0.0039
715.914	0.00414
716.175	0.00375
716.436	0.00444
716.698	0.00369
716.959	0.0033
717.221	0.00375
717.482	0.00384
717.743	0.00345
718.005	0.00366
718.266	0.00411
718.528	0.00384
718.789	0.00396
719.05	0.00402
719.312	0.0033
719.573	0.00402
719.835	0.00357
720.096	0.0036
720.357	0.00342
720.619	0.00309
720.88	0.00357
721.142	0.00363
721.403	0.00354
721.664	0.00348
721.926	0.00342
722.187	0.00345
722.448	0.00306
722.71	0.0033
722.971	0.00312
723.232	0.00351
723.494	0.00324
723.755	0.00312
724.016	0.00342
724.278	0.003
724.539	0.00312
724.801	0.00342
725.062	0.00279
725.323	0.00366
725.585	0.00282
725.846	0.00321
726.107	0.00342
726.368	0.00282
726.63	0.00291
726.891	0.00279
727.152	0.00285
727.414	0.00288
727.675	0.00279
727.936	0.00324
728.198	0.00291
728.459	0.00285
728.72	0.00273
728.982	0.0027
729.243	0.00273
729.504	0.00255
729.765	0.00279
730.027	0.00279
730.288	0.00282
730.549	0.0027
730.811	0.0024
731.072	0.00252
731.333	0.00249
731.594	0.00261
731.856	0.00273
732.117	0.00279
732.378	0.00234
732.639	0.00231
732.901	0.00273
733.162	0.00252
733.423	0.00231
733.684	0.00276
733.946	0.00276
734.207	0.003
734.468	0.00267
734.729	0.00255
734.991	0.00219
735.252	0.00264
735.513	0.00255
735.774	0.00249
736.036	0.0021
736.297	0.00231
736.558	0.00234
736.819	0.00201
737.08	0.00222
737.342	0.00213
737.603	0.00243
737.864	0.00225
738.125	0.00219
738.387	0.00234
738.648	0.00207
738.909	0.00228
739.17	0.00207
739.431	0.00231
739.692	0.00258
739.954	0.00201
740.215	0.00213
740.476	0.00219
740.737	0.00189
740.998	0.00243
741.26	0.00204
741.521	0.00207
741.782	0.0018
742.043	0.00195
742.304	0.00201
742.565	0.00198
742.826	0.00195
743.088	0.00204
743.349	0.00195
743.61	0.00201
743.871	0.00183
744.132	0.00183
744.393	0.00153
744.654	0.00192
744.916	0.00189
745.177	0.00156
745.438	0.0018
745.699	0.00174
745.96	0.00171
746.221	0.00183
746.482	0.00165
746.743	0.0015
747.004	0.00186
747.266	0.0018
747.527	0.00162
747.788	0.00171
748.049	0.00165
748.31	0.00165
748.571	0.00162
748.832	0.0018
749.093	0.00156
749.354	0.00141
749.615	0.00165
749.876	0.0015
750.137	0.00186
750.399	0.00147
750.66	0.00138
750.921	0.00201
751.182	0.00159
751.443	0.00132
751.704	0.00159
751.965	0.00141
752.226	0.00126
752.487	0.00138
752.748	0.00156
753.009	0.00147
753.27	0.00144
753.531	0.00186
753.792	0.00138
754.053	0.00138
754.314	0.00171
754.575	0.00153
754.836	0.00165
755.097	0.00129
755.358	0.00114
755.619	0.00147
755.88	0.00135
756.141	0.0012
756.402	0.00138
756.663	0.00111
756.924	0.00144
757.185	0.00126
757.446	0.00156
757.707	0.00138
757.968	0.00111
758.229	0.00123
758.49	0.00129
758.751	9.60211E-4
759.012	0.00105
759.273	0.00111
759.534	0.00114
759.795	0.0012
760.056	0.00123
760.317	0.00123
760.578	0.00105
760.839	0.00129
761.099	0.00108
761.36	0.00105
761.621	9.90218E-4
761.882	0.00114
762.143	0.00126
762.404	0.00102
762.665	0.0012
762.926	0.00117
763.187	0.00114
763.448	9.30205E-4
763.709	9.30205E-4
763.97	7.50165E-4
764.23	9.60211E-4
764.491	9.90218E-4
764.752	9.90218E-4
765.013	8.10178E-4
765.274	0.00126
765.535	0.00102
765.796	0.00132
766.057	8.70191E-4
766.317	0.00102
766.578	0.00102
766.839	0.00105
767.1	0.00111
767.361	6.60145E-4
767.622	0.00108
767.883	0.00102
768.143	7.80172E-4
768.404	9.30205E-4
768.665	9.90218E-4
768.926	9.60211E-4
769.187	9.00198E-4
769.448	8.10178E-4
769.708	8.10178E-4
769.969	9.30205E-4
770.23	0.00102
770.491	0.00105
770.752	9.30205E-4
771.012	8.10178E-4
771.273	0.00102
771.534	9.30205E-4
771.795	9.00198E-4
772.056	8.10178E-4
772.316	8.70191E-4
772.577	6.90152E-4
772.838	6.90152E-4
773.099	8.70191E-4
773.36	9.30205E-4
773.62	8.70191E-4
773.881	7.50165E-4
774.142	7.80172E-4
774.403	7.80172E-4
774.663	9.00198E-4
774.924	8.70191E-4
775.185	7.50165E-4
775.446	7.80172E-4
775.706	8.10178E-4
775.967	8.40185E-4
776.228	7.80172E-4
776.488	5.70125E-4
776.749	8.10178E-4
777.01	8.10178E-4
777.271	5.70125E-4
777.531	6.90152E-4
777.792	6.90152E-4
778.053	7.20158E-4
778.313	6.60145E-4
778.574	6.60145E-4
778.835	5.40119E-4
779.096	6.90152E-4
779.356	6.90152E-4
779.617	6.60145E-4
779.878	7.20158E-4
780.138	8.10178E-4
780.399	7.50165E-4
780.66	7.20158E-4
780.92	5.70125E-4
781.181	8.10178E-4
781.442	5.40119E-4
781.702	7.50165E-4
781.963	7.20158E-4
782.224	6.30139E-4
782.484	6.30139E-4
782.745	7.20158E-4
783.006	7.20158E-4
783.266	5.70125E-4
783.527	6.30139E-4
783.787	7.80172E-4
784.048	6.90152E-4
784.309	5.70125E-4
784.569	6.30139E-4
784.83	6.00132E-4
785.091	5.70125E-4
785.351	7.50165E-4
785.612	5.40119E-4
785.872	6.30139E-4
786.133	6.00132E-4
786.393	7.80172E-4
786.654	4.80106E-4
786.915	7.20158E-4
787.175	6.30139E-4
787.436	6.60145E-4
787.696	5.40119E-4
787.957	5.40119E-4
788.217	5.40119E-4
788.478	5.10112E-4
788.739	6.90152E-4
788.999	7.50165E-4
789.26	5.70125E-4
789.52	7.80172E-4
789.781	6.60145E-4
790.041	5.40119E-4
790.302	5.10112E-4
790.562	4.80106E-4
790.823	5.10112E-4
791.083	6.30139E-4
791.344	4.80106E-4
791.604	4.80106E-4
791.865	5.70125E-4
792.125	7.20158E-4
792.386	4.50099E-4
792.646	6.00132E-4
792.907	4.80106E-4
793.167	5.40119E-4
793.428	5.40119E-4
793.688	4.20092E-4
793.949	6.00132E-4
794.209	5.40119E-4
794.47	4.80106E-4
794.73	5.70125E-4
794.991	3.30073E-4
795.251	3.60079E-4
795.512	4.80106E-4
795.772	5.70125E-4
796.033	6.90152E-4
796.293	3.60079E-4
796.553	4.80106E-4
796.814	5.40119E-4
797.074	4.20092E-4
797.335	4.80106E-4
797.595	2.10046E-4
797.855	1.8004E-4
798.116	5.70125E-4
798.376	5.40119E-4
798.637	6.60145E-4
798.897	4.50099E-4
799.157	2.70059E-4
799.418	5.10112E-4
799.678	4.20092E-4
799.939	3.60079E-4
800.199	3.60079E-4
800.459	6.00132E-4
800.72	3.90086E-4
800.98	5.40119E-4
801.241	4.20092E-4
801.501	3.30073E-4
801.761	4.20092E-4
802.022	5.40119E-4
802.282	3.00066E-4
802.542	4.80106E-4
802.803	4.80106E-4
803.063	5.10112E-4
803.323	2.40053E-4
803.584	3.60079E-4
803.844	5.40119E-4
804.104	4.50099E-4
804.365	5.70125E-4
804.625	3.30073E-4
804.885	3.90086E-4
805.145	3.30073E-4
805.406	4.80106E-4
805.666	4.80106E-4
805.926	3.60079E-4
806.187	2.40053E-4
806.447	2.70059E-4
806.707	3.00066E-4
806.967	3.60079E-4
807.228	3.60079E-4
807.488	4.50099E-4
807.748	3.60079E-4
808.008	3.00066E-4
808.269	2.70059E-4
808.529	1.8004E-4
808.789	4.50099E-4
809.049	2.70059E-4
809.31	2.40053E-4
809.57	2.10046E-4
809.83	3.60079E-4
810.09	3.90086E-4
810.351	2.70059E-4
810.611	3.60079E-4
810.871	3.30073E-4
811.131	6.00132E-4
811.391	3.00066E-4
811.652	4.50099E-4
811.912	4.50099E-4
812.172	3.00066E-4
812.432	2.40053E-4
812.692	3.00066E-4
812.952	4.50099E-4
813.213	2.10046E-4
813.473	1.8004E-4
813.733	3.00066E-4
813.993	1.20026E-4
814.253	3.60079E-4
814.513	5.10112E-4
814.773	3.00066E-4
815.034	2.40053E-4
815.294	3.90086E-4
815.554	1.20026E-4
815.814	3.60079E-4
816.074	4.50099E-4
816.334	2.10046E-4
816.594	2.40053E-4
816.854	3.60079E-4
817.115	1.50033E-4
817.375	3.30073E-4
817.635	2.70059E-4
817.895	3.00066E-4
818.155	2.10046E-4
818.415	1.50033E-4
818.675	2.40053E-4
818.935	3.30073E-4
819.195	2.70059E-4
819.455	4.20092E-4
819.715	2.10046E-4
819.975	2.40053E-4
820.235	1.8004E-4
820.495	2.10046E-4
820.755	2.70059E-4
821.015	3.00066E-4
821.276	4.20092E-4
821.536	1.20026E-4
821.796	2.10046E-4
822.056	3.60079E-4
822.316	2.40053E-4
822.576	3.30073E-4
822.836	2.40053E-4
823.096	3.00066E-4
823.356	3.60079E-4
823.616	2.10046E-4
823.876	3.60079E-4
824.135	3.60079E-4
824.395	2.70059E-4
824.655	2.10046E-4
824.915	2.10046E-4
825.175	2.10046E-4
825.435	2.10046E-4
825.695	1.50033E-4
825.955	2.70059E-4
826.215	2.40053E-4
826.475	3.30073E-4
826.735	3.00066E-4
826.995	3.30073E-4
827.255	2.10046E-4
827.515	4.80106E-4
827.775	3.60079E-4
828.035	2.70059E-4
828.294	2.70059E-4
828.554	1.50033E-4
828.814	3.60079E-4
829.074	2.40053E-4
829.334	2.40053E-4
829.594	2.40053E-4
829.854	2.70059E-4
830.114	1.50033E-4
830.374	1.8004E-4
830.633	3.30073E-4
830.893	6.00132E-5
831.153	2.40053E-4
831.413	1.20026E-4
831.673	1.20026E-4
831.933	2.10046E-4
832.192	3.30073E-4
832.452	2.10046E-4
832.712	1.20026E-4
832.972	2.40053E-4
833.232	2.40053E-4
833.492	3.60079E-4
833.751	6.00132E-5
834.011	2.10046E-4
834.271	1.50033E-4
834.531	0
834.791	1.50033E-4
835.05	9.00198E-5
835.31	1.50033E-4
835.57	1.50033E-4
835.83	2.40053E-4
836.089	1.20026E-4
836.349	9.00198E-5
836.609	6.00132E-5
836.869	4.20092E-4
837.128	1.8004E-4
837.388	2.40053E-4
837.648	1.50033E-4
837.908	2.40053E-4
838.167	3.60079E-4
838.427	1.50033E-4
838.687	2.10046E-4
838.946	1.8004E-4
839.206	0
839.466	9.00198E-5
839.725	6.00132E-5
839.985	1.8004E-4
840.245	1.50033E-4
840.505	1.50033E-4
840.764	0
841.024	1.20026E-4
841.284	2.70059E-4
841.543	1.20026E-4
841.803	3.30073E-4
842.062	2.10046E-4
842.322	-9.00198E-5
842.582	-3.00066E-5
842.841	0
843.101	1.20026E-4
843.361	9.00198E-5
843.62	2.40053E-4
843.88	2.10046E-4
844.139	6.00132E-5
844.399	1.8004E-4
844.659	1.20026E-4
844.918	1.50033E-4
845.178	0
845.437	2.10046E-4
845.697	1.50033E-4
845.957	1.20026E-4
846.216	6.00132E-5
846.476	9.00198E-5
846.735	6.00132E-5
846.995	2.10046E-4
847.254	0
847.514	1.50033E-4
847.773	1.50033E-4
848.033	9.00198E-5
848.292	3.00066E-5
848.552	1.20026E-4
848.811	1.20026E-4
849.071	3.00066E-5
849.331	2.10046E-4
849.59	2.10046E-4
849.85	0
850.109	1.20026E-4
850.368	1.50033E-4
850.628	0
850.887	9.00198E-5
851.147	1.8004E-4
851.406	2.10046E-4
851.666	1.20026E-4
851.925	2.40053E-4
852.185	1.50033E-4
852.444	1.20026E-4
852.704	1.20026E-4
852.963	1.50033E-4
853.222	6.00132E-5
853.482	9.00198E-5
853.741	9.00198E-5
854.001	-9.00198E-5
854.26	1.50033E-4
854.52	9.00198E-5
854.779	9.00198E-5
855.038	6.00132E-5
855.298	9.00198E-5
855.557	3.00066E-5
855.816	1.20026E-4
856.076	2.10046E-4
856.335	2.10046E-4
856.595	1.20026E-4
856.854	1.8004E-4
857.113	2.10046E-4
857.373	1.8004E-4
857.632	9.00198E-5
857.891	2.10046E-4
858.151	1.8004E-4
858.41	6.00132E-5
858.669	-3.00066E-5
858.929	-9.00198E-5
859.188	9.00198E-5
859.447	-3.00066E-5
859.706	1.50033E-4
859.966	3.30073E-4
860.225	3.00066E-4
860.484	6.00132E-5
860.744	3.00066E-5
861.003	9.00198E-5
861.262	1.20026E-4
861.521	1.20026E-4
861.781	3.00066E-5
862.04	1.20026E-4
862.299	-3.00066E-5
862.558	3.00066E-5
862.818	1.50033E-4
863.077	1.50033E-4
863.336	1.20026E-4
863.595	0
863.854	1.20026E-4
864.114	-3.00066E-5
864.373	9.00198E-5
864.632	3.00066E-5
864.891	1.20026E-4
865.15	3.00066E-5
865.41	1.50033E-4
865.669	6.00132E-5
865.928	0
866.187	3.00066E-5
866.446	2.10046E-4
866.705	3.00066E-5
866.964	1.8004E-4
867.224	-6.00132E-5
867.483	3.00066E-5
867.742	6.00132E-5
868.001	0
868.26	1.20026E-4
868.519	-6.00132E-5
868.778	-9.00198E-5
869.037	2.10046E-4
869.297	2.10046E-4
869.556	-6.00132E-5
869.815	0
870.074	9.00198E-5
870.333	9.00198E-5
870.592	3.00066E-5
870.851	6.00132E-5
871.11	6.00132E-5
871.369	1.8004E-4
871.628	2.40053E-4
871.887	1.50033E-4
872.146	0
872.405	9.00198E-5
872.664	6.00132E-5
872.923	2.40053E-4
873.182	1.8004E-4
873.441	1.50033E-4
873.7	2.40053E-4
873.959	6.00132E-5
874.218	1.20026E-4
874.477	3.00066E-5
874.736	1.8004E-4
874.995	6.00132E-5
875.254	1.50033E-4
875.513	9.00198E-5
875.772	6.00132E-5
876.031	9.00198E-5
876.29	1.50033E-4
876.549	6.00132E-5
876.808	1.20026E-4
877.067	0
877.326	1.20026E-4
877.585	-6.00132E-5
877.843	6.00132E-5
878.102	1.50033E-4
878.361	3.00066E-5
878.62	9.00198E-5
878.879	3.00066E-5
879.138	1.8004E-4
879.397	1.20026E-4
879.656	6.00132E-5
879.915	3.00066E-5
880.173	0
880.432	1.50033E-4
880.691	-9.00198E-5
880.95	3.00066E-5
881.209	6.00132E-5
881.468	-3.00066E-5
881.726	1.8004E-4
881.985	-3.00066E-5
882.244	6.00132E-5
882.503	-9.00198E-5
882.762	3.00066E-5
883.02	1.8004E-4
883.279	1.20026E-4
883.538	1.50033E-4
883.797	0
884.056	1.20026E-4
884.314	1.20026E-4
884.573	3.00066E-5
884.832	1.20026E-4
885.091	0
885.349	6.00132E-5
885.608	0
885.867	3.00066E-5
886.125	-3.00066E-5
886.384	0
886.643	1.20026E-4
886.902	6.00132E-5
887.16	1.20026E-4
887.419	6.00132E-5
887.678	0
887.936	-9.00198E-5
888.195	9.00198E-5
888.454	1.20026E-4
888.712	6.00132E-5
888.971	3.00066E-5
889.23	6.00132E-5
889.488	9.00198E-5
889.747	-6.00132E-5
890.006	1.50033E-4
890.264	-3.00066E-5
890.523	6.00132E-5
890.781	3.00066E-5
891.04	9.00198E-5
891.299	1.50033E-4
891.557	0
891.816	-6.00132E-5
892.074	3.00066E-5
892.333	0
892.592	-3.00066E-5
892.85	0
893.109	-9.00198E-5
893.367	1.50033E-4
893.626	0
893.884	1.20026E-4
894.143	9.00198E-5
894.401	2.10046E-4
894.66	0
894.918	9.00198E-5
895.177	9.00198E-5
895.435	3.00066E-5
895.694	9.00198E-5
895.952	9.00198E-5
896.211	1.20026E-4
896.469	2.10046E-4
896.728	9.00198E-5
896.986	9.00198E-5
897.245	9.00198E-5
897.503	0
897.762	1.20026E-4
898.02	6.00132E-5
898.279	0
898.537	-6.00132E-5
898.795	9.00198E-5
899.054	-3.00066E-5
899.312	9.00198E-5
899.571	1.20026E-4
899.829	3.00066E-5
900.088	0
900.346	3.00066E-5
900.604	-3.00066E-5
900.863	0
901.121	1.20026E-4
901.379	2.10046E-4
901.638	0
901.896	3.00066E-5
902.154	0
902.413	2.40053E-4
902.671	-1.20026E-4
902.929	6.00132E-5
903.188	0
903.446	1.50033E-4
903.704	-3.00066E-5
903.963	9.00198E-5
904.221	1.20026E-4
904.479	-3.00066E-5
904.738	6.00132E-5
904.996	3.00066E-5
905.254	-3.00066E-5
905.512	-9.00198E-5
905.771	1.20026E-4
906.029	6.00132E-5
906.287	-6.00132E-5
906.545	2.10046E-4
906.804	6.00132E-5
907.062	1.50033E-4
907.32	6.00132E-5
907.578	0
907.836	3.00066E-5
908.095	-3.00066E-5
908.353	-3.00066E-5
908.611	3.00066E-5
908.869	-1.20026E-4
909.127	2.70059E-4
909.386	0
909.644	1.20026E-4
909.902	9.00198E-5
910.16	1.50033E-4
910.418	-3.00066E-5
910.676	-3.00066E-5
910.934	1.50033E-4
911.193	9.00198E-5
911.451	0
911.709	9.00198E-5
911.967	6.00132E-5
912.225	-6.00132E-5
912.483	3.00066E-5
912.741	0
912.999	9.00198E-5
913.257	6.00132E-5
913.515	9.00198E-5
913.773	0
914.032	-3.00066E-5
914.29	3.00066E-5
914.548	1.20026E-4
914.806	1.20026E-4
915.064	9.00198E-5
915.322	3.00066E-5
915.58	-6.00132E-5
915.838	6.00132E-5
916.096	-1.50033E-4
916.354	0
916.612	-3.00066E-5
916.87	3.00066E-5
917.128	-6.00132E-5
917.386	3.00066E-5
917.644	9.00198E-5
917.902	-3.00066E-5
918.16	9.00198E-5
918.417	-6.00132E-5
918.675	-3.00066E-5
918.933	-3.00066E-5
919.191	-6.00132E-5
919.449	9.00198E-5
919.707	-3.00066E-5
919.965	6.00132E-5
920.223	1.20026E-4
920.481	0
920.739	-9.00198E-5
920.997	2.40053E-4
921.254	2.10046E-4
921.512	0
921.77	1.20026E-4
922.028	6.00132E-5
922.286	-9.00198E-5
922.544	-1.8004E-4
922.801	3.00066E-5
923.059	3.00066E-5
923.317	9.00198E-5
923.575	-6.00132E-5
923.833	9.00198E-5
924.091	0
924.348	3.00066E-5
924.606	9.00198E-5
924.864	2.10046E-4
925.122	1.20026E-4
925.379	6.00132E-5
925.637	0
925.895	3.00066E-5
926.153	0
926.41	3.00066E-5
926.668	9.00198E-5
926.926	9.00198E-5
927.184	2.40053E-4
927.441	9.00198E-5
927.699	1.20026E-4
927.957	-1.20026E-4
928.214	9.00198E-5
928.472	1.50033E-4
928.73	3.00066E-5
928.987	6.00132E-5
929.245	1.20026E-4
929.503	3.00066E-5
929.76	2.10046E-4
930.018	9.00198E-5
930.276	-9.00198E-5
930.533	-9.00198E-5
930.791	9.00198E-5
931.049	3.00066E-5
931.306	3.00066E-5
931.564	6.00132E-5