245.877594	1.396888	0.751778
247.457687	1.382356	0.803996
249.037842	1.375634	0.855464
250.618011	1.376054	0.905853
252.198273	1.383072	0.954842
253.778564	1.396238	1.002109
255.358917	1.415174	1.047327
256.939331	1.439549	1.09015
258.519775	1.46906	1.130205
260.100281	1.503411	1.167091
261.680817	1.542289	1.200371
263.261414	1.58534	1.229579
264.842041	1.632148	1.25423
266.422729	1.682213	1.273837
268.003479	1.734933	1.28793
269.584259	1.789598	1.296097
271.1651	1.84539	1.298011
272.745941	1.90139	1.293476
274.326874	1.956618	1.282455
275.907837	2.01006	1.265104
277.488831	2.060732	1.24178
279.069885	2.107725	1.213039
280.651001	2.150266	1.179609
282.232147	2.187753	1.142352
283.813324	2.219785	1.102209
285.394562	2.24617	1.060145
286.97583	2.266911	1.017094
288.557159	2.282178	0.973919
290.138489	2.292279	0.931379
291.71991	2.297618	0.890113
293.301331	2.298657	0.850633
294.882813	2.295887	0.813333
296.464325	2.289798	0.778499
298.045898	2.280863	0.746326
299.627502	2.269525	0.716932
301.209137	2.25619	0.690378
302.790833	2.241222	0.666684
304.372528	2.224948	0.645838
305.954285	2.207657	0.62781
307.536072	2.189608	0.612561
309.11792	2.171031	0.600047
310.699768	2.152137	0.590229
312.281677	2.133121	0.583071
313.863617	2.114172	0.578545
315.445587	2.095476	0.576633
317.027618	2.077221	0.577322
318.60965	2.059612	0.580607
320.191711	2.042866	0.586483
321.773865	2.027225	0.594944
323.356018	2.012962	0.605971
324.938171	2.000382	0.619527
326.520386	1.989824	0.635543
328.102631	1.981663	0.653903
329.684937	1.976308	0.674429
331.267242	1.974186	0.696863
332.849579	1.975732	0.720851
334.431946	1.981365	0.745925
336.014374	1.991457	0.771496
337.596802	2.006297	0.79685
339.17926	2.026049	0.821159
340.76178	2.050711	0.8435
342.344299	2.080074	0.862897
343.926849	2.11369	0.878374
345.50946	2.150864	0.889026
347.092072	2.190661	0.894096
348.674713	2.231945	0.893053
350.257385	2.273447	0.885657
351.840057	2.313864	0.871996
353.422791	2.351957	0.85249
355.005554	2.386655	0.827849
356.588318	2.417135	0.799004
358.171143	2.442861	0.767012
359.753967	2.463593	0.732956
361.336823	2.479358	0.697862
362.919708	2.490397	0.662636
364.502594	2.497102	0.628025
366.08551	2.499959	0.594611
367.668488	2.499493	0.56281
369.251434	2.496228	0.532899
370.834442	2.490659	0.505036
372.41745	2.483238	0.479283
374.000519	2.474363	0.455636
375.583557	2.464376	0.43404
377.166656	2.453569	0.41441
378.749756	2.442185	0.396636
380.332886	2.430423	0.380603
381.916046	2.418448	0.36619
383.499207	2.406391	0.353278
385.082397	2.394358	0.34175
386.665588	2.382435	0.331497
388.24881	2.370688	0.322419
389.832062	2.359171	0.314419
391.415314	2.347926	0.307412
392.998596	2.336983	0.301318
394.581879	2.32637	0.296065
396.165222	2.316105	0.291587
397.748535	2.306202	0.287824
399.331848	2.296675	0.284721
400.915222	2.287531	0.282229
402.498596	2.278777	0.280302
404.082001	2.27042	0.278898
405.665405	2.262462	0.277979
407.24884	2.254909	0.27751
408.832245	2.247763	0.277458
410.41571	2.241028	0.277791
411.999176	2.234706	0.27848
413.582611	2.2288	0.279497
415.166107	2.223313	0.280815
416.749603	2.218247	0.282409
418.333099	2.213607	0.284253
419.916656	2.209393	0.286323
421.500183	2.20561	0.288593
423.08374	2.202259	0.291038
424.667297	2.199342	0.293635
426.250824	2.196862	0.296358
427.834412	2.19482	0.299181
429.417969	2.193216	0.30208
431.001556	2.19205	0.305027
432.585144	2.191321	0.307996
434.168762	2.191025	0.31096
435.75238	2.19116	0.313892
437.335999	2.19172	0.316763
438.919617	2.192698	0.319546
440.503265	2.194084	0.322212
442.086914	2.195869	0.324733
443.670563	2.198039	0.327081
445.254211	2.200578	0.32923
446.83783	2.20347	0.331152
448.421539	2.206695	0.332822
450.005188	2.210231	0.334216
451.588806	2.214053	0.335311
453.172516	2.218137	0.336086
454.756195	2.222453	0.336522
456.339844	2.226973	0.336603
457.923523	2.231664	0.336316
459.507233	2.236494	0.335649
461.090912	2.24143	0.334595
462.674622	2.246438	0.333148
464.25824	2.251484	0.331308
465.841949	2.256534	0.329077
467.425629	2.261555	0.326458
469.009338	2.266514	0.32346
470.593018	2.27138	0.320095
472.176697	2.276125	0.316375
473.760345	2.280721	0.312318
475.344055	2.285146	0.30794
476.927734	2.289372	0.303257
478.511414	2.293379	0.298294
480.095062	2.297145	0.293073
481.678772	2.300657	0.287621
483.26239	2.3039	0.281962
484.8461	2.306864	0.276122
486.429749	2.309542	0.270128
488.013367	2.311929	0.264005
489.597015	2.314023	0.257778
491.180664	2.315823	0.251472
492.764313	2.317332	0.245109
494.347961	2.318553	0.238713
495.931549	2.319492	0.232303
497.515198	2.320156	0.2259
499.098785	2.320552	0.219521
500.682373	2.320692	0.213184
502.265961	2.320584	0.206903
503.849548	2.320239	0.200692
505.433167	2.319669	0.194563
507.016693	2.318885	0.188528
508.60025	2.3179	0.182595
510.183777	2.316725	0.176774
511.767334	2.315373	0.171069
513.350891	2.313854	0.165489
514.934387	2.312181	0.160037
516.517883	2.310364	0.154717
518.101379	2.308416	0.149532
519.684875	2.306346	0.144484
521.268311	2.304164	0.139574
522.851746	2.301881	0.134804
524.435181	2.299505	0.130173
526.018677	2.297044	0.125681
527.602051	2.294509	0.121327
529.185425	2.291906	0.11711
530.76886	2.289242	0.113028
532.352173	2.286525	0.10908
533.935547	2.28376	0.105263
535.518921	2.280955	0.101576
537.102173	2.278114	0.098015
538.685486	2.275242	0.094579
540.268799	2.272345	0.091264
541.852051	2.269427	0.088068
543.435303	2.266491	0.084989
545.018555	2.263542	0.082024
546.601746	2.260583	0.079169
548.184937	2.257617	0.076424
549.768127	2.254647	0.073784
551.351257	2.251676	0.071248
552.934448	2.248705	0.068812
554.517517	2.245737	0.066476
556.100647	2.242774	0.064236
557.683716	2.239818	0.062091
559.266724	2.23687	0.060039
560.849731	2.233931	0.058077
562.432739	2.231003	0.056205
564.015747	2.228087	0.054421
565.598755	2.225185	0.052724
567.181702	2.222296	0.051113
568.764587	2.219423	0.049586
570.347473	2.216565	0.048144
571.930298	2.213725	0.046786
573.513184	2.210902	0.045513
575.096008	2.208099	0.044323
576.678772	2.205317	0.043219
578.261536	2.202556	0.0422
579.844299	2.199818	0.041269
581.427002	2.197106	0.040426
583.009644	2.194423	0.039673
584.592346	2.19177	0.039012
586.174927	2.189152	0.038447
587.757568	2.186574	0.037979
589.340149	2.184041	0.037611
590.922668	2.181558	0.037346
592.505188	2.179136	0.037187
594.087646	2.176782	0.037137
595.670105	2.174509	0.037195
597.252563	2.17233	0.037363
598.834961	2.170259	0.037637
600.417297	2.168312	0.038015
601.999634	2.166508	0.038489
603.581909	2.164866	0.039048
605.164185	2.163407	0.039675
606.74646	2.162148	0.040349
608.328613	2.161105	0.041042
609.910767	2.16029	0.041719
611.49292	2.159708	0.04234
613.075012	2.159352	0.042862
614.657104	2.159207	0.043241
616.239136	2.159244	0.043436
617.821106	2.159424	0.043413
619.403015	2.1597	0.043146
620.984985	2.160017	0.042625
622.566833	2.160321	0.041853
624.148682	2.160563	0.040846
625.73053	2.160699	0.039632
627.312256	2.160696	0.038247
628.893982	2.160533	0.036731
630.475708	2.160199	0.035124
632.057373	2.159694	0.033463
633.638977	2.159023	0.031783
635.220581	2.158199	0.030112
636.802124	2.157236	0.028472
638.383606	2.156152	0.026881
639.965027	2.154965	0.025349
641.546509	2.153692	0.023887
643.127808	2.152347	0.022498
644.709167	2.150945	0.021184
646.290466	2.149499	0.019945
647.871704	2.14802	0.01878
649.452942	2.146518	0.017686
651.034058	2.145	0.016661
652.615173	2.143473	0.015701
654.196289	2.141943	0.014802
655.777283	2.140414	0.01396
657.358276	2.138891	0.013173
658.93927	2.137376	0.012435
660.520142	2.135872	0.011745
662.100952	2.134381	0.011099
663.681763	2.132904	0.010493
665.262573	2.131443	0.009925
666.843262	2.129999	0.009393
668.42395	2.128573	0.008894
670.004517	2.127165	0.008426
671.585083	2.125775	0.007986
673.165649	2.124403	0.007573
674.746094	2.123051	0.007186
676.326538	2.121718	0.006822
677.90686	2.120404	0.006481
679.487183	2.119108	0.00616
681.067505	2.117832	0.005858
682.647705	2.116574	0.005575
684.227905	2.115334	0.00531
685.807983	2.114113	0.005061
687.388062	2.11291	0.004827
688.968079	2.111725	0.004608
690.548035	2.110558	0.004403
692.12793	2.109408	0.004211
693.707825	2.108275	0.004031
695.287598	2.10716	0.003864
696.86731	2.106061	0.003707
698.447021	2.10498	0.003562
700.026672	2.103915	0.003426
701.606262	2.102867	0.003301
703.185791	2.101835	0.003185
704.765259	2.100819	0.003078
706.344666	2.09982	0.002979
707.924011	2.098838	0.002889
709.503357	2.097873	0.002806
711.082581	2.096927	0.002729
712.661743	2.095997	0.002656
714.240906	2.095083	0.002586
715.819946	2.094183	0.002518
717.398987	2.093298	0.002454
718.977905	2.092426	0.002392
720.556824	2.091566	0.002332
722.135681	2.090719	0.002275
723.714478	2.089884	0.00222
725.293152	2.089061	0.002168
726.871826	2.088249	0.002117
728.450378	2.087449	0.002069
730.028931	2.086659	0.002022
731.607361	2.08588	0.001977
733.185791	2.085111	0.001933
734.764099	2.084352	0.001891
736.342407	2.083602	0.001851
737.920593	2.082862	0.001812
739.498779	2.082132	0.001774
741.076843	2.08141	0.001738
742.654907	2.080698	0.001703
744.232788	2.079994	0.001669
745.810669	2.079299	0.001636
747.38855	2.078612	0.001604
748.966309	2.077933	0.001573
750.544006	2.077262	0.001543
752.121643	2.076599	0.001515
753.699158	2.075943	0.001487
755.276672	2.075295	0.00146
756.854065	2.074655	0.001433
758.431396	2.074021	0.001408
760.008667	2.073395	0.001383
761.585938	2.072776	0.001359
763.163025	2.072163	0.001336
764.740112	2.071557	0.001314
766.317139	2.070958	0.001292
767.894043	2.070365	0.00127
769.470886	2.069779	0.00125
771.047729	2.069198	0.00123
772.62439	2.068624	0.00121
774.20105	2.068056	0.001191
775.777649	2.067494	0.001172
777.354126	2.066937	0.001154
778.930542	2.066386	0.001137
780.506958	2.065841	0.00112
782.083191	2.065302	0.001103
783.659424	2.064767	0.001087
785.235535	2.064238	0.001071
786.811584	2.063715	0.001055
788.387573	2.063196	0.00104
789.963501	2.062683	0.001026
791.539307	2.062174	0.001011
793.115051	2.061671	0.000997
794.690735	2.061172	0.000984
796.266296	2.060678	0.000971
797.841797	2.060189	0.000958
799.417236	2.059705	0.000945
800.992615	2.059225	0.000932
802.567871	2.058749	0.00092
804.143066	2.058278	0.000908
805.718201	2.057811	0.000897
807.293274	2.057349	0.000886
808.868225	2.056891	0.000875
810.443054	2.056437	0.000864
812.017883	2.055987	0.000853
813.59259	2.055541	0.000843
815.167236	2.055099	0.000833
816.741821	2.054661	0.000823
818.316284	2.054227	0.000813
819.890625	2.053797	0.000804
821.464966	2.053371	0.000794
823.039185	2.052948	0.000785
824.613281	2.052529	0.000776
826.187317	2.052114	0.000767
827.761353	2.051702	0.000759
829.335144	2.051294	0.00075
830.908997	2.050889	0.000742
832.482727	2.050488	0.000734
834.056335	2.05009	0.000726
835.629883	2.049695	0.000718
837.203308	2.049304	0.000711
838.776672	2.048916	0.000703
840.349915	2.048531	0.000696
841.923157	2.048149	0.000689
843.496216	2.047771	0.000682
845.069214	2.047395	0.000675
846.64209	2.047023	0.000668
848.214966	2.046654	0.000661
849.78772	2.046288	0.000655
851.360352	2.045924	0.000648
852.932922	2.045564	0.000642
854.505371	2.045207	0.000636
856.077759	2.044852	0.00063
857.650024	2.0445	0.000624
859.222168	2.044151	0.000618
860.79425	2.043805	0.000612
862.366333	2.043461	0.000606
863.938171	2.04312	0.000601
865.509949	2.042782	0.000595
867.081726	2.042446	0.00059
868.65332	2.042113	0.000585
870.224915	2.041783	0.000579
871.796265	2.041455	0.000574
873.367554	2.041129	0.000569
874.938843	2.040806	0.000564
876.510071	2.040486	0.000559
878.081055	2.040168	0.000554
879.652039	2.039852	0.00055
881.222839	2.039539	0.000545
882.79364	2.039227	0.00054
884.364258	2.038919	0.000536
885.934875	2.038612	0.000531
887.505249	2.038308	0.000527
889.075684	2.038006	0.000523
890.645874	2.037706	0.000519
892.216125	2.037409	0.000514
893.786133	2.037114	0.00051
895.356079	2.03682	0.000506
896.925964	2.036529	0.000502
898.495728	2.03624	0.000498
900.065308	2.035953	0.000494
901.634888	2.035668	0.000491
903.204285	2.035386	0.000487
904.773743	2.035105	0.000483
906.342957	2.034826	0.000479
907.911987	2.034549	0.000476
909.481079	2.034274	0.000472
911.049988	2.034001	0.000469
912.618835	2.03373	0.000465
914.187622	2.033461	0.000462
915.756165	2.033193	0.000458
917.324707	2.032928	0.000455
918.893066	2.032664	0.000452
920.461304	2.032402	0.000449
922.02948	2.032142	0.000445
923.597656	2.031884	0.000442
925.165649	2.031627	0.000439
926.733398	2.031373	0.000436
928.301147	2.031119	0.000433
929.868835	2.030868	0.00043
931.43634	2.030618	0.000427
933.003784	2.03037	0.000424
934.571106	2.030124	0.000421
936.138306	2.029879	0.000419
937.705383	2.029636	0.000416
939.272339	2.029395	0.000413
940.839233	2.029155	0.00041
942.405945	2.028917	0.000408
943.972656	2.02868	0.000405
945.539185	2.028445	0.000402
947.105591	2.028211	0.0004
948.671875	2.027979	0.000397
950.238098	2.027748	0.000395
951.804077	2.027519	0.000392
953.370117	2.027292	0.00039
954.935913	2.027066	0.000387
956.501648	2.026841	0.000385
958.067261	2.026618	0.000383
959.63269	2.026396	0.00038
961.19812	2.026175	0.000378
962.763367	2.025956	0.000376
964.328491	2.025738	0.000373
965.893555	2.025522	0.000371
967.458496	2.025307	0.000369
969.023254	2.025094	0.000367
970.587891	2.024881	0.000364
972.152466	2.024671	0.000362
973.716919	2.024461	0.00036
975.28125	2.024253	0.000358
976.845398	2.024046	0.000356
978.409485	2.02384	0.000354
979.97345	2.023635	0.000352
981.537231	2.023432	0.00035
983.100952	2.02323	0.000348
984.664551	2.02303	0.000346
986.228027	2.02283	0.000344
987.791321	2.022632	0.000342
989.354492	2.022434	0.00034
990.917603	2.022239	0.000338
992.480591	2.022044	0.000337
994.043457	2.02185	0.000335
995.60614	2.021658	0.000333
997.168762	2.021467	0.000331
998.73114	2.021277	0.000329
1010.614136	2.019867	0.000317
1013.990051	2.019477	0.000313
1017.366516	2.019093	0.00031
1020.74353	2.018713	0.000306
1024.121094	2.018337	0.000303
1027.499146	2.017967	0.0003
1030.877686	2.0176	0.000297
1034.256714	2.017238	0.000294
1037.636475	2.016881	0.000291
1041.016479	2.016527	0.000288
1044.397217	2.016177	0.000285
1047.77832	2.015832	0.000282
1051.160034	2.015491	0.000279
1054.542236	2.015153	0.000276
1057.925049	2.01482	0.000274
1061.30835	2.01449	0.000271
1064.692139	2.014164	0.000269
1068.076416	2.013842	0.000266
1071.461182	2.013523	0.000264
1074.84668	2.013208	0.000261
1078.232544	2.012897	0.000259
1081.618896	2.012589	0.000256
1085.005859	2.012284	0.000254
1088.393311	2.011983	0.000252
1091.781372	2.011685	0.00025
1095.1698	2.01139	0.000248
1098.558838	2.011099	0.000245
1101.948364	2.01081	0.000243
1105.338501	2.010525	0.000241
1108.729004	2.010243	0.000239
1112.120117	2.009964	0.000237
1115.511841	2.009687	0.000235
1118.904053	2.009414	0.000233
1122.296631	2.009144	0.000231
1125.689819	2.008876	0.000229
1129.083618	2.008611	0.000228
1132.477783	2.00835	0.000226
1135.872681	2.00809	0.000224
1139.267822	2.007834	0.000222
1142.663818	2.00758	0.000221
1146.060059	2.007329	0.000219
1149.456909	2.00708	0.000217
1152.854248	2.006834	0.000216
1156.252197	2.00659	0.000214
1159.650635	2.006348	0.000212
1163.049561	2.00611	0.000211
1166.449097	2.005873	0.000209
1169.849121	2.005639	0.000208
1173.249756	2.005407	0.000206
1176.650635	2.005178	0.000205
1180.052246	2.004951	0.000203
1183.454346	2.004726	0.000202
1186.857056	2.004503	0.0002
1190.260132	2.004282	0.000199
1193.663818	2.004064	0.000198
1197.067993	2.003848	0.000196
1200.472778	2.003633	0.000195
1203.87793	2.003421	0.000194
1207.283691	2.003211	0.000192
1210.689941	2.003003	0.000191
1214.096802	2.002797	0.00019
1217.50415	2.002592	0.000188
1220.911987	2.00239	0.000187
1224.320313	2.00219	0.000186
1227.729248	2.001991	0.000185
1231.138672	2.001795	0.000184
1234.548584	2.0016	0.000182
1237.959106	2.001407	0.000181
1241.369995	2.001215	0.00018
1244.781494	2.001026	0.000179
1248.193604	2.000838	0.000178
1251.606201	2.000652	0.000177
1255.019287	2.000468	0.000176
1258.432861	2.000285	0.000175
1261.846924	2.000104	0.000174
1265.261597	1.999925	0.000173
1268.676758	1.999747	0.000172
1272.092529	1.999571	0.000171
1275.508667	1.999396	0.00017
1278.925415	1.999223	0.000169
1282.342651	1.999052	0.000168
1285.760498	1.998882	0.000167
1289.178711	1.998713	0.000166
1292.597534	1.998546	0.000165
1296.016846	1.99838	0.000164
1299.436768	1.998216	0.000163
1302.857178	1.998054	0.000162
1306.278076	1.997892	0.000161
1309.699585	1.997733	0.00016
1313.12146	1.997574	0.000159
1316.544067	1.997417	0.000158
1319.967041	1.997261	0.000158
1323.390503	1.997107	0.000157
1326.814697	1.996953	0.000156
1330.239136	1.996801	0.000155
1333.664307	1.996651	0.000154
1337.089966	1.996502	0.000153
1340.516113	1.996354	0.000153
1343.942749	1.996207	0.000152
1347.369873	1.996061	0.000151
1350.797607	1.995917	0.00015
1354.22583	1.995774	0.000149
1357.654663	1.995631	0.000149
1361.083984	1.995491	0.000148
1364.513794	1.995351	0.000147
1367.944092	1.995212	0.000146
1371.375	1.995075	0.000146
1374.806396	1.994939	0.000145
1378.238281	1.994804	0.000144
1381.670654	1.994669	0.000144
1385.103638	1.994537	0.000143
1388.537109	1.994405	0.000142
1391.971069	1.994274	0.000141
1395.405518	1.994144	0.000141
1398.840576	1.994015	0.00014
1402.276123	1.993887	0.000139
1405.71228	1.993761	0.000139
1409.148926	1.993635	0.000138
1412.58606	1.99351	0.000137
1416.023682	1.993386	0.000137
1419.461792	1.993263	0.000136
1422.900635	1.993142	0.000136
1426.339722	1.993021	0.000135
1429.779541	1.992901	0.000134
1433.219849	1.992782	0.000134
1436.660522	1.992664	0.000133
1440.101807	1.992546	0.000133
1443.543701	1.99243	0.000132
1446.986084	1.992315	0.000131
1450.428955	1.9922	0.000131
1453.872314	1.992087	0.00013
1457.316284	1.991974	0.00013
1460.760742	1.991862	0.000129
1464.205811	1.991751	0.000129
1467.651123	1.991641	0.000128
1471.09729	1.991531	0.000127
1474.543701	1.991423	0.000127
1477.990845	1.991315	0.000126
1481.438477	1.991208	0.000126
1484.886475	1.991102	0.000125
1488.335205	1.990996	0.000125
1491.784424	1.990892	0.000124
1495.234009	1.990788	0.000124
1498.684204	1.990685	0.000123
1502.13501	1.990582	0.000123
1505.586182	1.990481	0.000122
1509.037964	1.99038	0.000122
1512.490234	1.99028	0.000121
1515.943115	1.99018	0.000121
1519.396362	1.990082	0.00012
1522.850342	1.989984	0.00012
1526.304688	1.989887	0.000119
1529.759521	1.98979	0.000119
1533.215088	1.989694	0.000118
1536.671021	1.989599	0.000118
1540.127441	1.989505	0.000117
1543.584473	1.989411	0.000117
1547.041992	1.989318	0.000116
1550.5	1.989225	0.000116
1553.958618	1.989133	0.000116
1557.417725	1.989042	0.000115
1560.877319	1.988952	0.000115
1564.337402	1.988862	0.000114
1567.798096	1.988773	0.000114
1571.259277	1.988684	0.000113
1574.720947	1.988596	0.000113
1578.183228	1.988509	0.000113
1581.645996	1.988422	0.000112
1585.109253	1.988336	0.000112
1588.572998	1.98825	0.000111
1592.037354	1.988165	0.000111
1595.502197	1.988081	0.00011
1598.967529	1.987997	0.00011
1602.433472	1.987913	0.00011
1605.899902	1.987831	0.000109
1609.366821	1.987749	0.000109
1612.834229	1.987667	0.000108
1616.302246	1.987586	0.000108
1619.770752	1.987505	0.000108
1623.239868	1.987425	0.000107
1626.709351	1.987346	0.000107
1630.179443	1.987267	0.000107
1633.650024	1.987189	0.000106
1637.121216	1.987111	0.000106
1640.592773	1.987033	0.000105
1644.065063	1.986957	0.000105
1647.53772	1.98688	0.000105
1651.010986	1.986804	0.000104
1654.484619	1.986729	0.000104
1657.95874	1.986654	0.000104
1661.433594	1.98658	0.000103
1664.908936	1.986506	0.000103
1668.384766	1.986433	0.000103
1671.861084	1.98636	0.000102
1675.337891	1.986288	0.000102
1678.81543	1.986216	0.000102
1682.293335	1.986144	0.000101
1685.771729	1.986073	0.000101
1689.250732	1.986003	0.000101
