Opt. Const. of Ir(ppy)3_Cauchy vs. nm
nm	n	k
250	2.97139	0
260	2.71521	0
270	2.50402	0
280	2.32867	0
290	2.18213	0
300	2.0589	0
310	1.95467	0
320	1.86605	0
330	1.79032	0
340	1.72529	0
350	1.66921	0
360	1.62064	0
370	1.57842	0
380	1.54156	0
390	1.50928	0
400	1.48092	0
410	1.45592	0
420	1.43381	0
430	1.4142	0
440	1.39676	0
450	1.38122	0
460	1.36733	0
470	1.35488	0
480	1.34371	0
490	1.33365	0
500	1.32458	0
510	1.31638	0
520	1.30896	0
530	1.30223	0
540	1.29611	0
550	1.29054	0
560	1.28546	0
570	1.28083	0
580	1.27659	0
590	1.2727	0
600	1.26914	0
610	1.26587	0
620	1.26285	0
630	1.26008	0
640	1.25752	0
650	1.25516	0
660	1.25298	0
670	1.25096	0
680	1.24909	0
690	1.24735	0
700	1.24574	0
710	1.24425	0
720	1.24285	0
730	1.24156	0
740	1.24035	0
750	1.23922	0
760	1.23817	0
770	1.23718	0
780	1.23627	0
790	1.2354	0
800	1.2346	0
810	1.23384	0
820	1.23313	0
830	1.23247	0
840	1.23184	0
850	1.23126	0
860	1.2307	0
870	1.23018	0
880	1.22969	0
890	1.22923	0
900	1.22879	0
910	1.22838	0
920	1.228	0
930	1.22763	0
940	1.22728	0
950	1.22695	0
960	1.22664	0
970	1.22635	0
980	1.22607	0
990	1.22581	0
1000	1.22556	0