Opt. Const. of B-Spline vs. nm
nm	n	k
250	1.80568	0
260	1.78766	0
270	1.76965	0
280	1.75163	0
290	1.73362	0
300	1.7156	0
310	1.69758	0
320	1.67957	0
330	1.66155	0
340	1.64354	0
350	1.62552	0
360	1.6075	0
370	1.58949	0
380	1.57147	0
390	1.55346	0
400	1.53544	0
410	1.51742	0
420	1.49941	0
430	1.48222	0
440	1.46715	0
450	1.45391	0
460	1.44227	0
470	1.43201	0
480	1.42295	0
490	1.41494	0
500	1.40786	0
510	1.40158	0
520	1.39601	0
530	1.39106	0
540	1.38667	0
550	1.38276	0
560	1.37928	0
570	1.37618	0
580	1.37342	0
590	1.37097	0
600	1.36878	0
610	1.36682	0
620	1.36509	0
630	1.36354	0
640	1.36217	0
650	1.36094	0
660	1.35986	0
670	1.3589	0
680	1.35806	0
690	1.3573	0
700	1.35664	0
710	1.35606	0
720	1.35555	0
730	1.3551	0
740	1.35472	0
750	1.35439	0
760	1.3541	0
770	1.35386	0
780	1.35366	0
790	1.3535	0
800	1.35337	0
810	1.35326	0
820	1.35318	0
830	1.35312	0
840	1.35309	0
850	1.35307	0
860	1.35307	0
870	1.35309	0
880	1.35312	0
890	1.35316	0
900	1.35322	0
910	1.35328	0
920	1.35335	0
930	1.35343	0
940	1.35352	0
950	1.35361	0
960	1.35371	0
970	1.35382	0
980	1.35392	0
990	1.35403	0
1000	1.35415	0