Opt. Const. of Ir(ppy)3_Cauchy vs. nm
nm	n	k
250	3.82036	0
260	3.49098	0
270	3.21945	0
280	2.99401	0
290	2.80559	0
300	2.64715	0
310	2.51315	0
320	2.39921	0
330	2.30184	0
340	2.21823	0
350	2.14613	0
360	2.08369	0
370	2.02939	0
380	1.98201	0
390	1.94051	0
400	1.90404	0
410	1.87189	0
420	1.84346	0
430	1.81826	0
440	1.79584	0
450	1.77586	0
460	1.75799	0
470	1.74199	0
480	1.72762	0
490	1.71469	0
500	1.70303	0
510	1.69249	0
520	1.68295	0
530	1.67429	0
540	1.66643	0
550	1.65927	0
560	1.65274	0
570	1.64678	0
580	1.64133	0
590	1.63633	0
600	1.63175	0
610	1.62754	0
620	1.62367	0
630	1.6201	0
640	1.61682	0
650	1.61378	0
660	1.61097	0
670	1.60838	0
680	1.60597	0
690	1.60374	0
700	1.60167	0
710	1.59975	0
720	1.59795	0
730	1.59629	0
740	1.59473	0
750	1.59328	0
760	1.59193	0
770	1.59067	0
780	1.58948	0
790	1.58838	0
800	1.58734	0
810	1.58637	0
820	1.58546	0
830	1.5846	0
840	1.5838	0
850	1.58304	0
860	1.58233	0
870	1.58166	0
880	1.58103	0
890	1.58044	0
900	1.57988	0
910	1.57935	0
920	1.57885	0
930	1.57838	0
940	1.57793	0
950	1.57751	0
960	1.57711	0
970	1.57674	0
980	1.57638	0
990	1.57604	0
1000	1.57572	0