245.877594	2.065792	0.270054
247.457687	2.047006	0.258472
249.037842	2.029147	0.248366
250.618011	2.012173	0.239557
252.198273	1.996037	0.231892
253.778564	1.980695	0.22524
255.358917	1.966101	0.21949
256.939331	1.952212	0.214546
258.519775	1.938987	0.210326
260.100281	1.926387	0.206757
261.680817	1.914376	0.20378
263.261414	1.902918	0.20134
264.842041	1.891983	0.19939
266.422729	1.88154	0.197891
268.003479	1.871563	0.196808
269.584259	1.862027	0.196109
271.1651	1.852909	0.195769
272.745941	1.844187	0.195763
274.326874	1.835843	0.196071
275.907837	1.827859	0.196675
277.488831	1.820219	0.197561
279.069885	1.812908	0.198714
280.651001	1.805914	0.200122
282.232147	1.799225	0.201776
283.813324	1.792831	0.203666
285.394562	1.786722	0.205786
286.97583	1.780891	0.208129
288.557159	1.775331	0.210689
290.138489	1.770037	0.213462
291.71991	1.765004	0.216444
293.301331	1.760229	0.219633
294.882813	1.755709	0.223026
296.464325	1.751444	0.226622
298.045898	1.747433	0.230418
299.627502	1.743677	0.234414
301.209137	1.740179	0.238611
302.790833	1.736941	0.243006
304.372528	1.733969	0.247601
305.954285	1.731268	0.252395
307.536072	1.728844	0.257388
309.11792	1.726707	0.262581
310.699768	1.724866	0.267973
312.281677	1.723332	0.273564
313.863617	1.722117	0.279353
315.445587	1.721237	0.285337
317.027618	1.720705	0.291516
318.60965	1.720541	0.297886
320.191711	1.720762	0.304442
321.773865	1.72139	0.311179
323.356018	1.722448	0.31809
324.938171	1.723959	0.325164
326.520386	1.725951	0.332391
328.102631	1.728451	0.339757
329.684937	1.731489	0.347242
331.267242	1.735096	0.354827
332.849579	1.739305	0.362487
334.431946	1.744149	0.37019
336.014374	1.749662	0.377903
337.596802	1.755879	0.385584
339.17926	1.762833	0.393187
340.76178	1.770557	0.400656
342.344299	1.77908	0.40793
343.926849	1.78843	0.414939
345.50946	1.798628	0.421605
347.092072	1.809689	0.427841
348.674713	1.82162	0.433551
350.257385	1.834418	0.438633
351.840057	1.848067	0.442975
353.422791	1.862535	0.44646
355.005554	1.877776	0.448968
356.588318	1.89372	0.450375
358.171143	1.91028	0.450562
359.753967	1.927344	0.449412
361.336823	1.944778	0.446821
362.919708	1.962424	0.442697
364.502594	1.980105	0.436972
366.08551	1.997624	0.429602
367.668488	2.014771	0.420575
369.251434	2.031329	0.409911
370.834442	2.047081	0.397671
372.41745	2.061816	0.383952
374.000519	2.07534	0.368887
375.583557	2.087485	0.352643
377.166656	2.098109	0.335414
378.749756	2.107111	0.317414
380.332886	2.114427	0.298869
381.916046	2.120033	0.280008
383.499207	2.123942	0.261055
385.082397	2.126207	0.242219
386.665588	2.126907	0.223692
388.24881	2.126147	0.205642
389.832062	2.124051	0.188209
391.415314	2.120753	0.171509
392.998596	2.116394	0.155628
394.581879	2.111117	0.140627
396.165222	2.10506	0.126547
397.748535	2.098356	0.113406
399.331848	2.091128	0.101206
400.915222	2.083489	0.089933
402.498596	2.075542	0.079565
404.082001	2.067379	0.07007
405.665405	2.059079	0.061409
407.24884	2.050711	0.053541
408.832245	2.042337	0.046421
410.41571	2.034006	0.040003
411.999176	2.025762	0.03424
413.582611	2.017641	0.029089
415.166107	2.009671	0.024504
416.749603	2.001878	0.020443
418.333099	1.99428	0.016865
419.916656	1.986892	0.013731
421.500183	1.979725	0.011006
423.08374	1.972788	0.008657
424.667297	1.966086	0.006652
426.250824	1.959625	0.004963
427.834412	1.953409	0.003563
429.417969	1.947439	0.002428
431.001556	1.94172	0.001536
432.585144	1.936253	0.000866
434.168762	1.931044	0.000399
435.75238	1.9261	0.000117
437.335999	1.921441	0.000004
438.919617	1.917123	0
440.503265	1.913084	0
442.086914	1.909264	0
443.670563	1.905632	0
445.254211	1.902166	0
446.83783	1.898851	0
448.421539	1.895672	0
450.005188	1.892618	0
451.588806	1.889679	0
453.172516	1.886847	0
454.756195	1.884115	0
456.339844	1.881476	0
457.923523	1.878923	0
459.507233	1.876452	0
461.090912	1.874059	0
462.674622	1.871738	0
464.25824	1.869485	0
465.841949	1.867298	0
467.425629	1.865173	0
469.009338	1.863106	0
470.593018	1.861096	0
472.176697	1.859138	0
473.760345	1.857232	0
475.344055	1.855374	0
476.927734	1.853562	0
478.511414	1.851795	0
480.095062	1.85007	0
481.678772	1.848387	0
483.26239	1.846742	0
484.8461	1.845135	0
486.429749	1.843565	0
488.013367	1.842029	0
489.597015	1.840527	0
491.180664	1.839057	0
492.764313	1.837619	0
494.347961	1.83621	0
495.931549	1.834831	0
497.515198	1.83348	0
499.098785	1.832155	0
500.682373	1.830857	0
502.265961	1.829585	0
503.849548	1.828337	0
505.433167	1.827112	0
507.016693	1.825911	0
508.60025	1.824732	0
510.183777	1.823575	0
511.767334	1.822439	0
513.350891	1.821323	0
514.934387	1.820227	0
516.517883	1.819151	0
518.101379	1.818093	0
519.684875	1.817053	0
521.268311	1.816031	0
522.851746	1.815026	0
524.435181	1.814038	0
526.018677	1.813066	0
527.602051	1.81211	0
529.185425	1.81117	0.000001
530.76886	1.810244	0.000001
532.352173	1.809334	0.000001
533.935547	1.808437	0.000001
535.518921	1.807555	0.000001
537.102173	1.806686	0.000001
538.685486	1.80583	0.000001
540.268799	1.804988	0.000001
541.852051	1.804157	0.000001
543.435303	1.80334	0.000001
545.018555	1.802534	0.000001
546.601746	1.80174	0.000001
548.184937	1.800958	0.000001
549.768127	1.800187	0.000001
551.351257	1.799427	0.000001
552.934448	1.798677	0.000001
554.517517	1.797939	0.000001
556.100647	1.79721	0.000001
557.683716	1.796492	0.000001
559.266724	1.795783	0.000001
560.849731	1.795084	0.000001
562.432739	1.794394	0.000001
564.015747	1.793714	0.000001
565.598755	1.793042	0.000001
567.181702	1.79238	0.000001
568.764587	1.791726	0.000001
570.347473	1.79108	0.000001
571.930298	1.790443	0.000001
573.513184	1.789814	0.000001
575.096008	1.789194	0.000001
576.678772	1.78858	0.000001
578.261536	1.787975	0.000001
579.844299	1.787377	0.000001
581.427002	1.786787	0.000001
583.009644	1.786203	0.000001
584.592346	1.785627	0.000001
586.174927	1.785058	0.000001
587.757568	1.784496	0.000001
589.340149	1.78394	0.000001
590.922668	1.783391	0.000001
592.505188	1.782848	0.000001
594.087646	1.782312	0.000001
595.670105	1.781782	0.000001
597.252563	1.781258	0.000001
598.834961	1.78074	0.000001
600.417297	1.780228	0.000001
601.999634	1.779722	0.000001
603.581909	1.779222	0.000001
605.164185	1.778727	0.000001
606.74646	1.778238	0.000001
608.328613	1.777754	0.000001
609.910767	1.777275	0.000001
611.49292	1.776802	0.000001
613.075012	1.776333	0.000001
614.657104	1.77587	0.000001
616.239136	1.775412	0.000001
617.821106	1.774959	0.000001
619.403015	1.77451	0.000001
620.984985	1.774067	0.000001
622.566833	1.773627	0.000001
624.148682	1.773193	0.000001
625.73053	1.772763	0.000001
627.312256	1.772337	0.000001
628.893982	1.771916	0.000001
630.475708	1.771499	0.000001
632.057373	1.771086	0.000001
633.638977	1.770678	0.000001
635.220581	1.770273	0.000001
636.802124	1.769873	0.000001
638.383606	1.769476	0.000001
639.965027	1.769084	0.000001
641.546509	1.768695	0.000001
643.127808	1.76831	0.000001
644.709167	1.767929	0.000001
646.290466	1.767552	0.000001
647.871704	1.767178	0.000001
649.452942	1.766807	0.000001
651.034058	1.766441	0.000001
652.615173	1.766077	0.000001
654.196289	1.765717	0.000001
655.777283	1.765361	0.000001
657.358276	1.765008	0.000001
658.93927	1.764658	0.000001
660.520142	1.764311	0.000001
662.100952	1.763967	0.000001
663.681763	1.763627	0.000001
665.262573	1.76329	0.000001
666.843262	1.762955	0.000001
668.42395	1.762624	0.000001
670.004517	1.762296	0.000001
671.585083	1.76197	0.000001
673.165649	1.761648	0.000001
674.746094	1.761328	0.000001
676.326538	1.761011	0.000001
677.90686	1.760697	0.000001
679.487183	1.760386	0.000001
681.067505	1.760077	0.000001
682.647705	1.759771	0.000001
684.227905	1.759467	0.000001
685.807983	1.759167	0.000001
687.388062	1.758868	0.000001
688.968079	1.758572	0.000001
690.548035	1.758279	0.000001
692.12793	1.757988	0.000001
693.707825	1.7577	0.000001
695.287598	1.757414	0.000001
696.86731	1.75713	0.000001
698.447021	1.756849	0.000001
700.026672	1.75657	0.000001
701.606262	1.756293	0.000001
703.185791	1.756018	0.000001
704.765259	1.755746	0.000001
706.344666	1.755476	0.000001
707.924011	1.755208	0.000001
709.503357	1.754942	0.000001
711.082581	1.754678	0.000001
712.661743	1.754416	0.000001
714.240906	1.754156	0.000001
715.819946	1.753899	0.000001
717.398987	1.753643	0.000001
718.977905	1.753389	0.000001
720.556824	1.753137	0.000001
722.135681	1.752887	0.000001
723.714478	1.75264	0.000001
725.293152	1.752393	0.000001
726.871826	1.752149	0.000001
728.450378	1.751907	0.000001
730.028931	1.751666	0.000001
731.607361	1.751428	0.000001
733.185791	1.751191	0.000001
734.764099	1.750955	0.000001
736.342407	1.750722	0.000001
737.920593	1.75049	0.000001
739.498779	1.75026	0.000001
741.076843	1.750031	0.000001
742.654907	1.749804	0.000001
744.232788	1.749579	0.000001
745.810669	1.749356	0.000001
747.38855	1.749134	0.000001
748.966309	1.748913	0.000001
750.544006	1.748695	0.000001
752.121643	1.748477	0.000001
753.699158	1.748261	0.000002
755.276672	1.748047	0.000002
756.854065	1.747834	0.000002
758.431396	1.747623	0.000002
760.008667	1.747413	0.000002
761.585938	1.747205	0.000002
763.163025	1.746998	0.000002
764.740112	1.746792	0.000002
766.317139	1.746588	0.000002
767.894043	1.746385	0.000002
769.470886	1.746184	0.000002
771.047729	1.745983	0.000002
772.62439	1.745785	0.000002
774.20105	1.745587	0.000002
775.777649	1.745391	0.000002
777.354126	1.745196	0.000002
778.930542	1.745002	0.000002
780.506958	1.74481	0.000002
782.083191	1.744619	0.000002
783.659424	1.744429	0.000002
785.235535	1.74424	0.000002
786.811584	1.744053	0.000002
788.387573	1.743866	0.000002
789.963501	1.743681	0.000002
791.539307	1.743497	0.000002
793.115051	1.743315	0.000002
794.690735	1.743133	0.000002
796.266296	1.742953	0.000002
797.841797	1.742773	0.000002
799.417236	1.742595	0.000002
800.992615	1.742418	0.000002
802.567871	1.742242	0.000002
804.143066	1.742067	0.000002
805.718201	1.741893	0.000002
807.293274	1.74172	0.000002
808.868225	1.741548	0.000002
810.443054	1.741377	0.000002
812.017883	1.741208	0.000002
813.59259	1.741039	0.000002
815.167236	1.740871	0.000002
816.741821	1.740704	0.000002
818.316284	1.740538	0.000002
819.890625	1.740374	0.000002
821.464966	1.74021	0.000002
823.039185	1.740047	0.000002
824.613281	1.739885	0.000002
826.187317	1.739724	0.000002
827.761353	1.739564	0.000002
829.335144	1.739405	0.000002
830.908997	1.739246	0.000002
832.482727	1.739089	0.000002
834.056335	1.738932	0.000002
835.629883	1.738777	0.000002
837.203308	1.738622	0.000002
838.776672	1.738468	0.000002
840.349915	1.738315	0.000002
841.923157	1.738163	0.000002
843.496216	1.738012	0.000002
845.069214	1.737861	0.000002
846.64209	1.737711	0.000002
848.214966	1.737563	0.000002
849.78772	1.737414	0.000002
851.360352	1.737267	0.000002
852.932922	1.737121	0.000002
854.505371	1.736975	0.000002
856.077759	1.73683	0.000002
857.650024	1.736686	0.000002
859.222168	1.736543	0.000002
860.79425	1.7364	0.000002
862.366333	1.736258	0.000002
863.938171	1.736117	0.000002
865.509949	1.735976	0.000002
867.081726	1.735837	0.000002
868.65332	1.735698	0.000002
870.224915	1.735559	0.000002
871.796265	1.735422	0.000002
873.367554	1.735285	0.000002
874.938843	1.735149	0.000002
876.510071	1.735013	0.000002
878.081055	1.734879	0.000002
879.652039	1.734745	0.000002
881.222839	1.734611	0.000002
882.79364	1.734478	0.000002
884.364258	1.734346	0.000002
885.934875	1.734215	0.000002
887.505249	1.734084	0.000002
889.075684	1.733954	0.000002
890.645874	1.733824	0.000003
892.216125	1.733695	0.000003
893.786133	1.733567	0.000003
895.356079	1.733439	0.000003
896.925964	1.733312	0.000003
898.495728	1.733186	0.000003
900.065308	1.73306	0.000003
901.634888	1.732934	0.000003
903.204285	1.73281	0.000003
904.773743	1.732686	0.000003
906.342957	1.732562	0.000003
907.911987	1.732439	0.000003
909.481079	1.732317	0.000003
911.049988	1.732195	0.000003
912.618835	1.732074	0.000003
914.187622	1.731953	0.000003
915.756165	1.731833	0.000003
917.324707	1.731713	0.000003
918.893066	1.731594	0.000003
920.461304	1.731476	0.000003
922.02948	1.731358	0.000003
923.597656	1.73124	0.000003
925.165649	1.731123	0.000003
926.733398	1.731007	0.000003
928.301147	1.730891	0.000003
929.868835	1.730775	0.000003
931.43634	1.73066	0.000003
933.003784	1.730546	0.000003
934.571106	1.730432	0.000003
936.138306	1.730319	0.000003
937.705383	1.730206	0.000003
939.272339	1.730093	0.000003
940.839233	1.729981	0.000003
942.405945	1.72987	0.000003
943.972656	1.729759	0.000003
945.539185	1.729648	0.000003
947.105591	1.729538	0.000003
948.671875	1.729428	0.000003
950.238098	1.729319	0.000003
951.804077	1.72921	0.000003
953.370117	1.729102	0.000003
954.935913	1.728994	0.000003
956.501648	1.728887	0.000003
958.067261	1.72878	0.000003
959.63269	1.728673	0.000003
961.19812	1.728567	0.000003
962.763367	1.728461	0.000003
964.328491	1.728356	0.000003
965.893555	1.728251	0.000003
967.458496	1.728147	0.000003
969.023254	1.728042	0.000003
970.587891	1.727939	0.000003
972.152466	1.727836	0.000003
973.716919	1.727733	0.000003
975.28125	1.72763	0.000003
976.845398	1.727528	0.000003
978.409485	1.727427	0.000003
979.97345	1.727325	0.000003
981.537231	1.727225	0.000003
983.100952	1.727124	0.000003
984.664551	1.727024	0.000003
986.228027	1.726924	0.000003
987.791321	1.726825	0.000003
989.354492	1.726726	0.000003
990.917603	1.726627	0.000003
992.480591	1.726529	0.000003
994.043457	1.726431	0.000004
995.60614	1.726334	0.000004
997.168762	1.726236	0.000004
998.73114	1.72614	0.000004
1010.614136	1.725414	0.000004
1013.990051	1.725212	0.000004
1017.366516	1.72501	0.000004
1020.74353	1.72481	0.000004
1024.121094	1.724612	0.000004
1027.499146	1.724415	0.000004
1030.877686	1.724219	0.000004
1034.256714	1.724025	0.000004
1037.636475	1.723832	0.000004
1041.016479	1.72364	0.000004
1044.397217	1.72345	0.000004
1047.77832	1.72326	0.000004
1051.160034	1.723072	0.000004
1054.542236	1.722886	0.000004
1057.925049	1.7227	0.000004
1061.30835	1.722515	0.000004
1064.692139	1.722332	0.000004
1068.076416	1.72215	0.000004
1071.461182	1.721969	0.000004
1074.84668	1.721789	0.000004
1078.232544	1.72161	0.000004
1081.618896	1.721432	0.000005
1085.005859	1.721255	0.000005
1088.393311	1.721079	0.000005
1091.781372	1.720904	0.000005
1095.1698	1.72073	0.000005
1098.558838	1.720558	0.000005
1101.948364	1.720386	0.000005
1105.338501	1.720215	0.000005
1108.729004	1.720044	0.000005
1112.120117	1.719875	0.000005
1115.511841	1.719707	0.000005
1118.904053	1.71954	0.000005
1122.296631	1.719373	0.000005
1125.689819	1.719207	0.000005
1129.083618	1.719042	0.000005
1132.477783	1.718878	0.000005
1135.872681	1.718715	0.000005
1139.267822	1.718553	0.000005
1142.663818	1.718391	0.000005
1146.060059	1.71823	0.000005
1149.456909	1.71807	0.000005
1152.854248	1.717911	0.000005
1156.252197	1.717752	0.000006
1159.650635	1.717594	0.000006
1163.049561	1.717437	0.000006
1166.449097	1.717281	0.000006
1169.849121	1.717125	0.000006
1173.249756	1.716969	0.000006
1176.650635	1.716815	0.000006
1180.052246	1.716661	0.000006
1183.454346	1.716508	0.000006
1186.857056	1.716355	0.000006
1190.260132	1.716204	0.000006
1193.663818	1.716052	0.000006
1197.067993	1.715902	0.000006
1200.472778	1.715751	0.000006
1203.87793	1.715602	0.000006
1207.283691	1.715453	0.000006
1210.689941	1.715305	0.000006
1214.096802	1.715157	0.000006
1217.50415	1.715009	0.000006
1220.911987	1.714863	0.000007
1224.320313	1.714717	0.000007
1227.729248	1.714571	0.000007
1231.138672	1.714426	0.000007
1234.548584	1.714281	0.000007
1237.959106	1.714137	0.000007
1241.369995	1.713993	0.000007
1244.781494	1.71385	0.000007
1248.193604	1.713707	0.000007
1251.606201	1.713565	0.000007
1255.019287	1.713423	0.000007
1258.432861	1.713282	0.000007
1261.846924	1.713141	0.000007
1265.261597	1.713	0.000007
1268.676758	1.71286	0.000007
1272.092529	1.71272	0.000007
1275.508667	1.712581	0.000007
1278.925415	1.712442	0.000008
1282.342651	1.712304	0.000008
1285.760498	1.712166	0.000008
1289.178711	1.712028	0.000008
1292.597534	1.711891	0.000008
1296.016846	1.711754	0.000008
1299.436768	1.711617	0.000008
1302.857178	1.711481	0.000008
1306.278076	1.711345	0.000008
1309.699585	1.71121	0.000008
1313.12146	1.711074	0.000008
1316.544067	1.71094	0.000008
1319.967041	1.710805	0.000008
1323.390503	1.710671	0.000008
1326.814697	1.710537	0.000008
1330.239136	1.710404	0.000008
1333.664307	1.71027	0.000009
1337.089966	1.710137	0.000009
1340.516113	1.710005	0.000009
1343.942749	1.709872	0.000009
1347.369873	1.70974	0.000009
1350.797607	1.709608	0.000009
1354.22583	1.709477	0.000009
1357.654663	1.709346	0.000009
1361.083984	1.709215	0.000009
1364.513794	1.709084	0.000009
1367.944092	1.708953	0.000009
1371.375	1.708823	0.000009
1374.806396	1.708693	0.000009
1378.238281	1.708563	0.000009
1381.670654	1.708434	0.00001
1385.103638	1.708305	0.00001
1388.537109	1.708175	0.00001
1391.971069	1.708047	0.00001
1395.405518	1.707918	0.00001
1398.840576	1.707789	0.00001
1402.276123	1.707661	0.00001
1405.71228	1.707533	0.00001
1409.148926	1.707405	0.00001
1412.58606	1.707278	0.00001
1416.023682	1.70715	0.00001
1419.461792	1.707023	0.00001
1422.900635	1.706896	0.00001
1426.339722	1.706769	0.00001
1429.779541	1.706642	0.000011
1433.219849	1.706516	0.000011
1436.660522	1.70639	0.000011
1440.101807	1.706263	0.000011
1443.543701	1.706137	0.000011
1446.986084	1.706011	0.000011
1450.428955	1.705886	0.000011
1453.872314	1.70576	0.000011
1457.316284	1.705635	0.000011
1460.760742	1.705509	0.000011
1464.205811	1.705384	0.000011
1467.651123	1.705259	0.000011
1471.09729	1.705134	0.000011
1474.543701	1.705009	0.000012
1477.990845	1.704885	0.000012
1481.438477	1.70476	0.000012
1484.886475	1.704636	0.000012
1488.335205	1.704512	0.000012
1491.784424	1.704387	0.000012
1495.234009	1.704263	0.000012
1498.684204	1.704139	0.000012
1502.13501	1.704015	0.000012
1505.586182	1.703892	0.000012
1509.037964	1.703768	0.000012
1512.490234	1.703644	0.000013
1515.943115	1.703521	0.000013
1519.396362	1.703398	0.000013
1522.850342	1.703274	0.000013
1526.304688	1.703151	0.000013
1529.759521	1.703028	0.000013
1533.215088	1.702905	0.000013
1536.671021	1.702782	0.000013
1540.127441	1.702659	0.000013
1543.584473	1.702536	0.000013
1547.041992	1.702413	0.000013
1550.5	1.702291	0.000013
1553.958618	1.702168	0.000014
1557.417725	1.702045	0.000014
1560.877319	1.701923	0.000014
1564.337402	1.7018	0.000014
1567.798096	1.701678	0.000014
1571.259277	1.701555	0.000014
1574.720947	1.701433	0.000014
1578.183228	1.701311	0.000014
1581.645996	1.701188	0.000014
1585.109253	1.701066	0.000014
1588.572998	1.700944	0.000015
1592.037354	1.700822	0.000015
1595.502197	1.7007	0.000015
1598.967529	1.700578	0.000015
1602.433472	1.700456	0.000015
1605.899902	1.700334	0.000015
1609.366821	1.700212	0.000015
1612.834229	1.70009	0.000015
1616.302246	1.699968	0.000015
1619.770752	1.699846	0.000015
1623.239868	1.699724	0.000015
1626.709351	1.699602	0.000016
1630.179443	1.69948	0.000016
1633.650024	1.699358	0.000016
1637.121216	1.699236	0.000016
1640.592773	1.699114	0.000016
1644.065063	1.698992	0.000016
1647.53772	1.698871	0.000016
1651.010986	1.698749	0.000016
1654.484619	1.698627	0.000016
1657.95874	1.698505	0.000017
1661.433594	1.698383	0.000017
1664.908936	1.698261	0.000017
1668.384766	1.698139	0.000017
1671.861084	1.698017	0.000017
1675.337891	1.697895	0.000017
1678.81543	1.697773	0.000017
1682.293335	1.697652	0.000017
1685.771729	1.69753	0.000017
1689.250732	1.697407	0.000017
