Opt. Const. of TAPC_Cauchy vs. nm
nm	n	k
250	2.07759	0
260	1.96457	0
270	1.87133	0
280	1.79387	0
290	1.72909	0
300	1.67457	0
310	1.62843	0
320	1.58916	0
330	1.55558	0
340	1.52672	0
350	1.50181	0
360	1.48021	0
370	1.46142	0
380	1.44501	0
390	1.43062	0
400	1.41796	0
410	1.40679	0
420	1.3969	0
430	1.38812	0
440	1.38031	0
450	1.37333	0
460	1.36709	0
470	1.36149	0
480	1.35646	0
490	1.35193	0
500	1.34783	0
510	1.34413	0
520	1.34077	0
530	1.33772	0
540	1.33494	0
550	1.33241	0
560	1.3301	0
570	1.32799	0
580	1.32605	0
590	1.32427	0
600	1.32264	0
610	1.32114	0
620	1.31976	0
630	1.31848	0
640	1.3173	0
650	1.31621	0
660	1.31521	0
670	1.31427	0
680	1.3134	0
690	1.3126	0
700	1.31184	0
710	1.31115	0
720	1.3105	0
730	1.30989	0
740	1.30932	0
750	1.30879	0
760	1.30829	0
770	1.30783	0
780	1.3074	0
790	1.30699	0
800	1.3066	0
810	1.30624	0
820	1.30591	0
830	1.30559	0
840	1.30529	0
850	1.30501	0
860	1.30474	0
870	1.30449	0
880	1.30425	0
890	1.30403	0
900	1.30382	0
910	1.30361	0
920	1.30342	0
930	1.30325	0
940	1.30308	0
950	1.30291	0
960	1.30276	0
970	1.30262	0
980	1.30248	0
990	1.30235	0
1000	1.30222	0