Opt. Const. of Liq_Cauchy vs. nm
nm	n	k
250.000000	2.616110	0.000000	
260.000000	2.474655	0.000000	
270.000000	2.357966	0.000000	
280.000000	2.261019	0.000000	
290.000000	2.179936	0.000000	
300.000000	2.111702	0.000000	
310.000000	2.053950	0.000000	
320.000000	2.004806	0.000000	
330.000000	1.962774	0.000000	
340.000000	1.926654	0.000000	
350.000000	1.895476	0.000000	
360.000000	1.868451	0.000000	
370.000000	1.844931	0.000000	
380.000000	1.824386	0.000000	
390.000000	1.806375	0.000000	
400.000000	1.790531	0.000000	
410.000000	1.776550	0.000000	
420.000000	1.764175	0.000000	
430.000000	1.753189	0.000000	
440.000000	1.743409	0.000000	
450.000000	1.734680	0.000000	
460.000000	1.726870	0.000000	
470.000000	1.719864	0.000000	
480.000000	1.713565	0.000000	
490.000000	1.707889	0.000000	
500.000000	1.702765	0.000000	
510.000000	1.698128	0.000000	
520.000000	1.693924	0.000000	
530.000000	1.690105	0.000000	
540.000000	1.686631	0.000000	
550.000000	1.683463	0.000000	
560.000000	1.680571	0.000000	
570.000000	1.677926	0.000000	
580.000000	1.675504	0.000000	
590.000000	1.673281	0.000000	
600.000000	1.671239	0.000000	
610.000000	1.669360	0.000000	
620.000000	1.667630	0.000000	
630.000000	1.666033	0.000000	
640.000000	1.664558	0.000000	
650.000000	1.663194	0.000000	
660.000000	1.661931	0.000000	
670.000000	1.660760	0.000000	
680.000000	1.659674	0.000000	
690.000000	1.658664	0.000000	
700.000000	1.657725	0.000000	
710.000000	1.656851	0.000000	
720.000000	1.656036	0.000000	
730.000000	1.655276	0.000000	
740.000000	1.654566	0.000000	
750.000000	1.653903	0.000000	
760.000000	1.653282	0.000000	
770.000000	1.652701	0.000000	
780.000000	1.652156	0.000000	
790.000000	1.651645	0.000000	
800.000000	1.651166	0.000000	
810.000000	1.650716	0.000000	
820.000000	1.650292	0.000000	
830.000000	1.649894	0.000000	
840.000000	1.649519	0.000000	
850.000000	1.649165	0.000000	
860.000000	1.648832	0.000000	
870.000000	1.648518	0.000000	
880.000000	1.648221	0.000000	
890.000000	1.647940	0.000000	
900.000000	1.647675	0.000000	
910.000000	1.647424	0.000000	
920.000000	1.647187	0.000000	
930.000000	1.646962	0.000000	
940.000000	1.646749	0.000000	
950.000000	1.646547	0.000000	
960.000000	1.646356	0.000000	
970.000000	1.646174	0.000000	
980.000000	1.646001	0.000000	
990.000000	1.645837	0.000000	
1000.000000	1.645681	0.000000	